src/system/lol.vcd
$date
	Sun Aug 27 21:29:07 2023
$end
$version
	Icarus Verilog
$end
$timescale
	1ps
$end
$scope module tb $end
$var wire 1 ! tb_tx $end
$var parameter 32 " REF_CLK $end
$var parameter 32 # UART_RX_CLK $end
$var parameter 32 $ UART_TX_CLK $end
$var reg 1 % tb_ref_clk $end
$var reg 1 & tb_rst $end
$var reg 1 ' tb_rx $end
$var reg 1 ( tb_uart_clk $end
$scope function uart_frame $end
$var reg 8 ) data [7:0] $end
$upscope $end
$scope module dut $end
$var wire 8 * clk_div_config [7:0] $end
$var wire 1 % i_ref_clk $end
$var wire 1 & i_rst $end
$var wire 1 ' i_rx $end
$var wire 1 ( i_uart_clk $end
$var wire 8 + uart_config [7:0] $end
$var wire 1 , uart_rst $end
$var wire 1 - tx_clk $end
$var wire 1 . tx_busy $end
$var wire 1 / sync_tx_signal $end
$var wire 8 0 sync_tx_data [7:0] $end
$var wire 1 1 sync_rx_signal $end
$var wire 8 2 sync_rx_data [7:0] $end
$var wire 1 3 rf_ld_data $end
$var wire 1 4 rf_ld_add $end
$var wire 1 5 rf_en_w $end
$var wire 1 6 rf_en_r $end
$var wire 1 7 rf_data_source $end
$var wire 2 8 rf_add_source [1:0] $end
$var wire 1 9 reg_file_valid $end
$var wire 1 : ref_rst $end
$var wire 1 ; out_source $end
$var wire 1 ! o_tx $end
$var wire 1 < async_tx_signal $end
$var wire 8 = async_tx_data [7:0] $end
$var wire 1 > async_rx_signal $end
$var wire 8 ? async_rx_data [7:0] $end
$var wire 1 @ alu_valid $end
$var wire 1 A alu_ld_func_en $end
$var wire 1 B alu_en $end
$var wire 1 C alu_clk_en $end
$scope module u0 $end
$var wire 1 D i_async $end
$var wire 1 % i_clk $end
$var wire 1 & i_rst $end
$var parameter 32 E WIDTH $end
$var reg 1 F meta_0 $end
$var reg 1 : o_sync $end
$upscope $end
$scope module u1 $end
$var wire 1 G i_async $end
$var wire 1 ( i_clk $end
$var wire 1 & i_rst $end
$var parameter 32 H WIDTH $end
$var reg 1 I meta_0 $end
$var reg 1 , o_sync $end
$upscope $end
$scope module u2 $end
$var wire 1 % i_clk $end
$var wire 1 : i_rst $end
$var wire 1 J pulse $end
$var wire 1 K sync_en $end
$var wire 1 > i_async_en $end
$var wire 8 L i_async_data [7:0] $end
$var parameter 32 M WIDTH $end
$var reg 1 N en_reg $end
$var reg 8 O mux_out [7:0] $end
$var reg 8 P o_sync_data [7:0] $end
$var reg 1 1 o_sync_en $end
$scope module u0 $end
$var wire 1 % i_clk $end
$var wire 1 : i_rst $end
$var wire 1 > i_async $end
$var parameter 32 Q WIDTH $end
$var reg 1 R meta_0 $end
$var reg 1 K o_sync $end
$upscope $end
$upscope $end
$scope module u3 $end
$var wire 1 , i_rst $end
$var wire 1 S pulse $end
$var wire 1 T sync_en $end
$var wire 1 - i_clk $end
$var wire 1 < i_async_en $end
$var wire 8 U i_async_data [7:0] $end
$var parameter 32 V WIDTH $end
$var reg 1 W en_reg $end
$var reg 8 X mux_out [7:0] $end
$var reg 8 Y o_sync_data [7:0] $end
$var reg 1 / o_sync_en $end
$scope module u0 $end
$var wire 1 , i_rst $end
$var wire 1 - i_clk $end
$var wire 1 < i_async $end
$var parameter 32 Z WIDTH $end
$var reg 1 [ meta_0 $end
$var reg 1 T o_sync $end
$upscope $end
$upscope $end
$scope module u4 $end
$var wire 1 % i_clk $end
$var wire 1 : i_rst $end
$var wire 8 \ i_rx_data [7:0] $end
$var wire 8 ] o_clk_div_config [7:0] $end
$var wire 8 ^ o_uart_config [7:0] $end
$var wire 8 _ reg_file_out [7:0] $end
$var wire 1 9 o_reg_file_valid $end
$var wire 1 @ o_alu_valid $end
$var wire 1 7 i_rf_data_source $end
$var wire 2 ` i_rf_add_source [1:0] $end
$var wire 1 ; i_output_source $end
$var wire 1 3 i_ld_rf_data $end
$var wire 1 4 i_ld_rf_add $end
$var wire 1 A i_ld_alu_func $end
$var wire 1 5 i_en_w $end
$var wire 1 6 i_en_r $end
$var wire 1 B i_alu_en $end
$var wire 1 C i_alu_clk_en $end
$var wire 8 a alu_out [7:0] $end
$var wire 8 b alu_op_1 [7:0] $end
$var wire 8 c alu_op_0 [7:0] $end
$var wire 1 d alu_gated_clk $end
$var reg 4 e add_in_reg [3:0] $end
$var reg 8 f data_in_reg [7:0] $end
$var reg 4 g func_reg [3:0] $end
$var reg 8 h o_tx_data [7:0] $end
$scope module u0 $end
$var wire 4 i i_func [3:0] $end
$var wire 1 : i_rst $end
$var wire 1 B i_en $end
$var wire 1 d i_clk $end
$var wire 8 j i_b [7:0] $end
$var wire 8 k i_a [7:0] $end
$var reg 8 l alu_out_com [7:0] $end
$var reg 1 m alu_valid_flag $end
$var reg 8 n o_alu_out [7:0] $end
$var reg 1 @ o_valid $end
$upscope $end
$scope module u1 $end
$var wire 4 o i_add [3:0] $end
$var wire 1 % i_clk $end
$var wire 8 p i_data [7:0] $end
$var wire 1 : i_rst $end
$var wire 8 q o_reg_0 [7:0] $end
$var wire 8 r o_reg_1 [7:0] $end
$var wire 8 s o_reg_2 [7:0] $end
$var wire 8 t o_reg_3 [7:0] $end
$var wire 1 9 o_valid $end
$var wire 1 5 i_en_w $end
$var wire 1 6 i_en_r $end
$var reg 8 u o_data [7:0] $end
$scope begin $ivl_for_loop0 $end
$var integer 32 v i [31:0] $end
$upscope $end
$upscope $end
$scope module u2 $end
$var wire 1 % i_clk $end
$var wire 1 d o_clk_gated $end
$var wire 1 C i_en $end
$var reg 1 w latch_out $end
$upscope $end
$upscope $end
$scope module u5 $end
$var wire 1 @ i_alu_valid $end
$var wire 1 % i_clk $end
$var wire 1 9 i_reg_file_valid $end
$var wire 1 : i_rst $end
$var wire 8 x i_rx_data [7:0] $end
$var wire 1 1 i_rx_valid $end
$var wire 1 . i_tx_busy $end
$var parameter 4 y IDLE $end
$var parameter 4 z LD_ADD_RX_R $end
$var parameter 4 { LD_ADD_RX_W $end
$var parameter 4 | LD_ALU_OUT $end
$var parameter 4 } LD_D_RX $end
$var parameter 4 ~ LD_FUNC $end
$var parameter 4 !" LD_OP_0 $end
$var parameter 4 "" LD_OP_1 $end
$var parameter 4 #" LD_RF_OUT $end
$var parameter 4 $" WRITE $end
$var reg 4 %" current_state [3:0] $end
$var reg 4 &" next_state [3:0] $end
$var reg 1 C o_alu_clk_en $end
$var reg 1 B o_alu_en $end
$var reg 1 6 o_en_r $end
$var reg 1 5 o_en_w $end
$var reg 1 A o_ld_alu_func $end
$var reg 1 4 o_ld_rf_add $end
$var reg 1 3 o_ld_rf_data $end
$var reg 1 ; o_output_source $end
$var reg 2 '" o_rf_add_source [1:0] $end
$var reg 1 7 o_rf_data_source $end
$var reg 1 < o_tx_valid $end
$upscope $end
$scope module u6 $end
$var wire 1 ( i_clk $end
$var wire 5 (" i_div_ratio [4:0] $end
$var wire 1 , i_rst $end
$var wire 1 )" cnt_done $end
$var wire 1 *" cnt_center $end
$var reg 5 +" cnt [4:0] $end
$var reg 5 ," cnt_comb [4:0] $end
$var reg 1 - o_clk $end
$upscope $end
$scope module u7 $end
$var wire 1 ( i_clk $end
$var wire 8 -" i_config [7:0] $end
$var wire 1 , i_rst $end
$var wire 1 ' i_rx $end
$var wire 8 ." i_sync_data [7:0] $end
$var wire 1 / i_sync_sig $end
$var wire 1 - i_tx_clk $end
$var wire 1 . o_tx_busy $end
$var wire 1 ! o_tx $end
$var wire 1 > o_sync_sig $end
$var wire 8 /" o_sync_data [7:0] $end
$scope module u0 $end
$var wire 1 - i_clk $end
$var wire 8 0" i_data [7:0] $end
$var wire 1 / i_data_valid $end
$var wire 1 1" i_en_par $end
$var wire 1 2" i_par_type $end
$var wire 1 , i_rst $end
$var wire 1 3" ser_en $end
$var wire 1 4" ser_done $end
$var wire 1 5" ser_bit $end
$var wire 1 6" par_bit $end
$var wire 1 ! o_tx $end
$var wire 1 . o_busy $end
$var wire 2 7" mux_sel [1:0] $end
$scope module u0 $end
$var wire 1 - i_clk $end
$var wire 8 8" i_data [7:0] $end
$var wire 1 / i_data_valid $end
$var wire 1 , i_rst $end
$var wire 1 5" o_ser_out $end
$var wire 1 4" o_done $end
$var wire 1 3" i_en $end
$var wire 1 . i_busy $end
$var parameter 32 9" COUNTER_WIDTH $end
$var reg 4 :" counter_comb [3:0] $end
$var reg 3 ;" counter_reg [2:0] $end
$var reg 8 <" shift_comb [7:0] $end
$var reg 8 =" shift_reg [7:0] $end
$upscope $end
$scope module u1 $end
$var wire 1 - i_clk $end
$var wire 1 / i_data_valid $end
$var wire 1 1" i_en_par $end
$var wire 1 , i_rst $end
$var wire 1 4" i_ser_done $end
$var parameter 3 >" IDLE $end
$var parameter 3 ?" PAR $end
$var parameter 3 @" SER_BYTE $end
$var parameter 3 A" START $end
$var parameter 3 B" STOP $end
$var reg 3 C" current_state [2:0] $end
$var reg 3 D" next_state [2:0] $end
$var reg 1 . o_busy $end
$var reg 2 E" o_mux_sel [1:0] $end
$var reg 1 3" o_ser_en $end
$upscope $end
$scope module u2 $end
$var wire 8 F" i_data [7:0] $end
$var wire 1 2" i_type $end
$var wire 1 G" x_p $end
$var wire 1 6" o_parity $end
$upscope $end
$scope module u3 $end
$var wire 1 6" i_par_bit $end
$var wire 2 H" i_sel [1:0] $end
$var wire 1 5" i_ser_bit $end
$var wire 1 I" i_start_bit $end
$var wire 1 J" i_stop_bit $end
$var reg 1 ! o_ser_out $end
$upscope $end
$upscope $end
$scope module u1 $end
$var wire 1 ( i_clk $end
$var wire 1 K" i_en_par $end
$var wire 1 L" i_par_type $end
$var wire 5 M" i_prescale [4:0] $end
$var wire 1 , i_rst $end
$var wire 1 ' i_rx $end
$var wire 1 N" str_err $end
$var wire 1 O" stp_err $end
$var wire 1 P" sampled_bit $end
$var wire 1 Q" par_err $end
$var wire 1 > o_data_valid $end
$var wire 8 R" o_data [7:0] $end
$var wire 1 S" en_str_chk $end
$var wire 1 T" en_stp_chk $end
$var wire 1 U" en_sample $end
$var wire 1 V" en_par_chk $end
$var wire 1 W" en_deser $end
$var wire 1 X" en_cnt $end
$var wire 3 Y" edge_cnt [2:0] $end
$var wire 4 Z" bit_cnt [3:0] $end
$scope module u0 $end
$var wire 1 ( i_clk $end
$var wire 1 K" i_en_par $end
$var wire 1 L" i_par_type $end
$var wire 1 , i_rst $end
$var wire 1 ' i_rx $end
$var wire 1 N" i_str_err $end
$var wire 1 O" i_stp_err $end
$var wire 1 Q" i_par_err $end
$var wire 3 [" i_edge_cnt [2:0] $end
$var wire 4 \" i_bit_cnt [3:0] $end
$var wire 1 ]" byte_done $end
$var wire 1 ^" bit_done $end
$var parameter 3 _" BYTE $end
$var parameter 3 `" ERROR $end
$var parameter 3 a" IDLE $end
$var parameter 3 b" PARITY $end
$var parameter 3 c" START $end
$var parameter 3 d" STOP $end
$var reg 3 e" current_state [2:0] $end
$var reg 3 f" next_state [2:0] $end
$var reg 1 > o_data_valid $end
$var reg 1 X" o_en_cnt $end
$var reg 1 W" o_en_deser $end
$var reg 1 V" o_en_par_chk $end
$var reg 1 U" o_en_sample $end
$var reg 1 T" o_en_stp_chk $end
$var reg 1 S" o_en_str_chk $end
$upscope $end
$scope module u1 $end
$var wire 1 ( i_clk $end
$var wire 1 X" i_en_cnt $end
$var wire 1 , i_rst $end
$var wire 1 g" bit_cnt_done $end
$var reg 4 h" bit_cnt_comb [3:0] $end
$var reg 3 i" edge_cnt_comb [2:0] $end
$var reg 4 j" o_bit_cnt [3:0] $end
$var reg 3 k" o_edge_cnt [2:0] $end
$upscope $end
$scope module u2 $end
$var wire 1 l" all_zeros $end
$var wire 1 ( i_clk $end
$var wire 3 m" i_edge_cnt [2:0] $end
$var wire 1 U" i_en_samp $end
$var wire 5 n" i_prescale [4:0] $end
$var wire 1 , i_rst $end
$var wire 1 ' i_rx $end
$var wire 3 o" right [2:0] $end
$var wire 3 p" left [2:0] $end
$var wire 1 q" even_ones $end
$var wire 3 r" center [2:0] $end
$var wire 1 s" all_ones $end
$var reg 1 P" o_sampled_bit $end
$var reg 2 t" samples [1:0] $end
$upscope $end
$scope module u3 $end
$var wire 1 ( i_clk $end
$var wire 1 V" i_en_chk $end
$var wire 1 L" i_par_type $end
$var wire 1 , i_rst $end
$var wire 1 P" i_sampled_bit $end
$var wire 1 u" par_calc $end
$var wire 8 v" i_data [7:0] $end
$var reg 1 Q" o_par_err $end
$upscope $end
$scope module u4 $end
$var wire 1 ( i_clk $end
$var wire 1 S" i_en_chk $end
$var wire 1 , i_rst $end
$var wire 1 P" i_sampled_bit $end
$var reg 1 N" o_str_err $end
$upscope $end
$scope module u5 $end
$var wire 1 ( i_clk $end
$var wire 1 T" i_en_chk $end
$var wire 1 , i_rst $end
$var wire 1 P" i_sampled_bit $end
$var reg 1 O" o_stp_err $end
$upscope $end
$scope module u6 $end
$var wire 1 ( i_clk $end
$var wire 3 w" i_edge_cnt [2:0] $end
$var wire 1 W" i_en_deser $end
$var wire 1 , i_rst $end
$var wire 1 P" i_sampled_bit $end
$var reg 8 x" data_comb [7:0] $end
$var reg 8 y" o_data [7:0] $end
$upscope $end
$upscope $end
$upscope $end
$upscope $end
$scope task reset $end
$upscope $end
$scope task send_command $end
$var reg 8 z" command [7:0] $end
$upscope $end
$scope task send_frame $end
$var reg 11 {" frame [10:0] $end
$scope begin $ivl_for_loop1 $end
$var integer 32 |" i [31:0] $end
$upscope $end
$upscope $end
$upscope $end
$enddefinitions $end
$comment Show the parameter values. $end
$dumpall
b100 d"
b1 c"
b11 b"
b0 a"
b101 `"
b10 _"
b111 B"
b1 A"
b10 @"
b11 ?"
b0 >"
b11 9"
b1001 $"
b11 #"
b110 ""
b101 !"
b100 ~
b1 }
b10 |
b111 {
b1000 z
b0 y
b1 Z
b1000 V
b1 Q
b1000 M
b1 H
b1 E
b1100100000 $
b1100100 #
b10100 "
$end
#0
$dumpvars
bx |"
bx {"
bx z"
bx y"
bx x"
bx w"
bx v"
xu"
bx t"
xs"
bx r"
xq"
bx p"
bx o"
bx n"
bx m"
xl"
bx k"
bx j"
bx i"
bx h"
xg"
b0 f"
bx e"
x^"
x]"
bx \"
bx ["
bx Z"
bx Y"
xX"
xW"
xV"
xU"
xT"
xS"
bx R"
xQ"
xP"
xO"
xN"
bx M"
xL"
xK"
1J"
0I"
bx H"
xG"
bx F"
bx E"
bx D"
bx C"
bx ="
bx <"
bx ;"
bx :"
bx 8"
bx 7"
x6"
x5"
x4"
x3"
x2"
x1"
bx 0"
bx /"
bx ."
bx -"
bx ,"
bx +"
x*"
x)"
bx ("
bx '"
bx &"
bx %"
bx x
xw
bx v
bx u
bx t
bx s
bx r
bx q
bx p
bx o
bx n
xm
bx l
bx k
bx j
bx i
bx h
bx g
bx f
bx e
xd
bx c
bx b
bx a
bx `
bx _
bx ^
bx ]
bx \
x[
bx Y
bx X
xW
bx U
xT
xS
xR
bx P
bx O
xN
bx L
xK
xJ
xI
1G
xF
1D
xC
xB
xA
x@
bx ?
x>
bx =
x<
x;
x:
x9
bx 8
x7
x6
x5
x4
x3
bx 2
x1
bx 0
x/
x.
x-
x,
bx +
bx *
bx )
0(
1'
1&
0%
x!
$end
#10000
1F
1%
#15000
0F
0I
0&
#20000
1&
0%
#30000
0d
b0 D"
b0 l
1m
0<
0;
b0 8
b0 `
b0 '"
04
07
03
05
09
06
0A
0C
0B
b0 &"
b11 p"
b101 o"
b100 r"
b1000 ("
02"
11"
0L"
1K"
b1000 M"
b1000 n"
b0 _
b0 u
b1000 *
b1000 ]
b1000 t
b100001 +
b100001 ^
b100001 s
b100001 -"
b0 b
b0 j
b0 r
b0 c
b0 k
b0 q
0R
0N
01
b0 2
b0 P
b0 \
b0 x
b0 g
b0 i
b0 f
b0 p
b0 e
b0 o
b0 =
b0 U
b0 h
b0 %"
0@
b0 a
b0 n
b10000 v
0:
1F
1%
#40000
0w
0%
#50000
1!
b0 X
b11 7"
b11 E"
b11 H"
0.
03"
b0 O
0)"
0*"
b1 ,"
04"
06"
b0 <"
05"
b1 :"
0u"
1l"
0[
0W
0/
0G"
b0 0
b0 Y
b0 ."
b0 0"
b0 8"
b0 F"
b0 ="
b0 ;"
b0 C"
b0 ?
b0 L
b0 /"
b0 R"
b0 v"
b0 y"
0s"
0q"
b0 t"
b0 +"
0-
0>
0S"
0T"
0V"
0W"
0X"
0U"
b1 i"
b0 h"
b0 x"
1:
0,
1I
b0 e"
0g"
0^"
b0 Y"
b0 ["
b0 k"
b0 m"
b0 w"
0]"
b0 Z"
b0 \"
b0 j"
0P"
0Q"
0N"
0O"
b10000 v
1%
1(
#60000
0%
#70000
0J
0K
xN
x1
1%
#80000
0%
#90000
01
0N
1%
#100000
0%
0(
#110000
1%
#120000
0%
#130000
1%
#140000
0%
#150000
1,
1%
1(
#160000
0%
#170000
1%
#180000
0%
#190000
1%
#200000
0%
0(
#210000
1%
#220000
0%
#230000
1%
#240000
0%
#250000
b10 ,"
b1 +"
1%
1(
#260000
0%
#270000
1%
#280000
0%
#290000
1%
#300000
0%
0(
#310000
1%
#320000
0%
#330000
1%
#340000
0%
#350000
b11 ,"
b10 +"
1%
1(
#360000
0%
#370000
1%
#380000
0%
#390000
1%
#400000
0%
0(
#410000
1%
#420000
0%
#430000
1%
#440000
0%
#450000
1*"
b100 ,"
b11 +"
1%
1(
#460000
0%
#470000
1%
#480000
0%
#490000
1%
#500000
0%
0(
#510000
1%
#520000
0%
#530000
1%
#540000
0%
#550000
b0x D"
0S
x/
xW
0T
0*"
b101 ,"
1-
b100 +"
1%
1(
#560000
0%
#570000
1%
#580000
0%
#590000
1%
#600000
0%
0(
#610000
1%
#620000
0%
#630000
1%
#640000
0%
#650000
b110 ,"
b101 +"
1%
1(
#660000
0%
#670000
1%
#680000
0%
#690000
1%
#700000
0%
0(
#710000
1%
#720000
0%
#730000
1%
#740000
0%
#750000
b111 ,"
b110 +"
1%
1(
#760000
0%
#770000
1%
#780000
0%
#790000
1%
#800000
0%
0(
#810000
1%
#820000
0%
#830000
1%
#840000
0%
#850000
1)"
b1000 ,"
b111 +"
1%
1(
#860000
0%
#870000
1%
#880000
0%
#890000
1%
#900000
0%
0(
#910000
1%
#920000
0%
#930000
1%
#940000
0%
#950000
0)"
b1 ,"
0-
b0 +"
1%
1(
#960000
0%
#970000
1%
#980000
0%
#990000
1%
#1000000
0%
0(
#1010000
1%
#1020000
0%
#1030000
1%
#1040000
0%
#1050000
b10 ,"
b1 +"
1%
1(
#1060000
0%
#1070000
1%
#1080000
0%
#1090000
1%
#1100000
0%
0(
#1110000
1%
#1120000
0%
#1130000
1%
#1140000
0%
#1150000
b11 ,"
b10 +"
1%
1(
#1160000
0%
#1170000
1%
#1180000
0%
#1190000
1%
#1200000
0%
0(
#1210000
1%
#1220000
0%
#1230000
1%
#1240000
0%
#1250000
1*"
b100 ,"
b11 +"
1%
1(
#1260000
0%
#1270000
1%
#1280000
0%
#1290000
1%
#1300000
0%
0(
#1310000
1%
#1320000
0%
#1330000
1%
#1340000
0%
#1350000
0!
b0 7"
b0 E"
b0 H"
b0 D"
0W
0/
b0x C"
0*"
b101 ,"
1-
b100 +"
1%
1(
#1360000
0%
#1370000
1%
#1380000
0%
#1390000
1%
#1400000
0%
0(
#1410000
1%
#1420000
0%
#1430000
1%
#1440000
0%
#1450000
b110 ,"
b101 +"
1%
1(
#1460000
0%
#1470000
1%
#1480000
0%
#1490000
1%
#1500000
0%
0(
#1510000
1%
#1520000
0%
#1530000
1%
#1540000
0%
#1550000
b111 ,"
b110 +"
1%
1(
#1560000
0%
#1570000
1%
#1580000
0%
#1590000
1%
#1600000
0%
0(
#1610000
1%
#1620000
0%
#1630000
1%
#1640000
0%
#1650000
1)"
b1000 ,"
b111 +"
1%
1(
#1660000
0%
#1670000
1%
#1680000
0%
#1690000
1%
#1700000
0%
0(
#1710000
1%
#1720000
0%
#1730000
1%
#1740000
0%
#1750000
0)"
b1 ,"
0-
b0 +"
1%
1(
#1760000
0%
#1770000
1%
#1780000
0%
#1790000
1%
#1800000
0%
0(
#1810000
1%
#1820000
0%
#1830000
1%
#1840000
0%
#1850000
b10 ,"
b1 +"
1%
1(
#1860000
0%
#1870000
1%
#1880000
0%
#1890000
1%
#1900000
0%
0(
#1910000
1%
#1920000
0%
#1930000
1%
#1940000
0%
#1950000
b11 ,"
b10 +"
1%
1(
#1960000
0%
#1970000
1%
#1980000
0%
#1990000
1%
#2000000
0%
0(
#2010000
1%
#2020000
0%
#2030000
1%
#2040000
0%
#2050000
1*"
b100 ,"
b11 +"
1%
1(
#2060000
0%
#2070000
1%
#2080000
0%
#2090000
1%
#2100000
0%
0(
#2110000
1%
#2120000
0%
#2130000
1%
#2140000
0%
#2150000
1!
b11 7"
b11 E"
b11 H"
b0 C"
0*"
b101 ,"
1-
b100 +"
1%
1(
#2160000
0%
#2170000
1%
#2180000
0%
#2190000
1%
#2200000
0%
0(
#2210000
1%
#2220000
0%
#2230000
1%
#2240000
0%
#2250000
b110 ,"
b101 +"
1%
1(
#2260000
0%
#2270000
1%
#2280000
0%
#2290000
1%
#2300000
0%
0(
#2310000
1%
#2320000
0%
#2330000
1%
#2340000
0%
#2350000
b111 ,"
b110 +"
1%
1(
#2360000
0%
#2370000
1%
#2380000
0%
#2390000
1%
#2400000
0%
0(
#2410000
1%
#2420000
b1 f"
0'
0%
b0 |"
b10101010100 {"
b10101010 )
b10101010 z"
#2430000
1%
#2440000
0%
#2450000
1S"
1X"
1U"
1)"
b1000 ,"
b1 e"
b111 +"
1%
1(
#2460000
0%
#2470000
1%
#2480000
0%
#2490000
1%
#2500000
0%
0(
#2510000
1%
#2520000
0%
#2530000
1%
#2540000
0%
#2550000
0)"
b1 ,"
b10 i"
0-
b0 +"
b1 Y"
b1 ["
b1 k"
b1 m"
b1 w"
1%
1(
#2560000
0%
#2570000
1%
#2580000
0%
#2590000
1%
#2600000
0%
0(
#2610000
1%
#2620000
0%
#2630000
1%
#2640000
0%
#2650000
b11 i"
b10 ,"
b10 Y"
b10 ["
b10 k"
b10 m"
b10 w"
b1 +"
1%
1(
#2660000
0%
#2670000
1%
#2680000
0%
#2690000
1%
#2700000
0%
0(
#2710000
1%
#2720000
0%
#2730000
1%
#2740000
0%
#2750000
b11 ,"
b100 i"
b10 +"
b11 Y"
b11 ["
b11 k"
b11 m"
b11 w"
1%
1(
#2760000
0%
#2770000
1%
#2780000
0%
#2790000
1%
#2800000
0%
0(
#2810000
1%
#2820000
0%
#2830000
1%
#2840000
0%
#2850000
b101 i"
1*"
b100 ,"
b100 Y"
b100 ["
b100 k"
b100 m"
b100 w"
b11 +"
1%
1(
#2860000
0%
#2870000
1%
#2880000
0%
#2890000
1%
#2900000
0%
0(
#2910000
1%
#2920000
0%
#2930000
1%
#2940000
0%
#2950000
0*"
b101 ,"
b110 i"
1-
b100 +"
b101 Y"
b101 ["
b101 k"
b101 m"
b101 w"
1%
1(
#2960000
0%
#2970000
1%
#2980000
0%
#2990000
1%
#3000000
0%
0(
#3010000
1%
#3020000
0%
#3030000
1%
#3040000
0%
#3050000
b111 i"
b110 ,"
b110 Y"
b110 ["
b110 k"
b110 m"
b110 w"
b101 +"
1%
1(
#3060000
0%
#3070000
1%
#3080000
0%
#3090000
1%
#3100000
0%
0(
#3110000
1%
#3120000
0%
#3130000
1%
#3140000
0%
#3150000
b111 ,"
b1 h"
b10 f"
b0 i"
b110 +"
1g"
1^"
b111 Y"
b111 ["
b111 k"
b111 m"
b111 w"
1%
1(
#3160000
0%
#3170000
1%
#3180000
0%
#3190000
1%
#3200000
0%
0(
#3210000
1%
#3220000
0%
b1 |"
#3230000
1%
#3240000
0%
#3250000
b1 i"
0S"
1W"
1)"
b1000 ,"
b1 Z"
b1 \"
b1 j"
0g"
0^"
b0 Y"
b0 ["
b0 k"
b0 m"
b0 w"
b10 e"
b111 +"
1%
1(
#3260000
0%
#3270000
1%
#3280000
0%
#3290000
1%
#3300000
0%
0(
#3310000
1%
#3320000
0%
#3330000
1%
#3340000
0%
#3350000
0)"
b1 ,"
b10 i"
0-
b0 +"
b1 Y"
b1 ["
b1 k"
b1 m"
b1 w"
1%
1(
#3360000
0%
#3370000
1%
#3380000
0%
#3390000
1%
#3400000
0%
0(
#3410000
1%
#3420000
0%
#3430000
1%
#3440000
0%
#3450000
b11 i"
b10 ,"
b10 Y"
b10 ["
b10 k"
b10 m"
b10 w"
b1 +"
1%
1(
#3460000
0%
#3470000
1%
#3480000
0%
#3490000
1%
#3500000
0%
0(
#3510000
1%
#3520000
0%
#3530000
1%
#3540000
0%
#3550000
b11 ,"
b100 i"
b10 +"
b11 Y"
b11 ["
b11 k"
b11 m"
b11 w"
1%
1(
#3560000
0%
#3570000
1%
#3580000
0%
#3590000
1%
#3600000
0%
0(
#3610000
1%
#3620000
0%
#3630000
1%
#3640000
0%
#3650000
b101 i"
1*"
b100 ,"
b100 Y"
b100 ["
b100 k"
b100 m"
b100 w"
b11 +"
1%
1(
#3660000
0%
#3670000
1%
#3680000
0%
#3690000
1%
#3700000
0%
0(
#3710000
1%
#3720000
0%
#3730000
1%
#3740000
0%
#3750000
0*"
b101 ,"
b110 i"
1-
b100 +"
b101 Y"
b101 ["
b101 k"
b101 m"
b101 w"
1%
1(
#3760000
0%
#3770000
1%
#3780000
0%
#3790000
1%
#3800000
0%
0(
#3810000
1%
#3820000
0%
#3830000
1%
#3840000
0%
#3850000
b111 i"
b110 ,"
b110 Y"
b110 ["
b110 k"
b110 m"
b110 w"
b101 +"
1%
1(
#3860000
0%
#3870000
1%
#3880000
0%
#3890000
1%
#3900000
0%
0(
#3910000
1%
#3920000
0%
#3930000
1%
#3940000
0%
#3950000
b111 ,"
b10 h"
b0 i"
b110 +"
1g"
1^"
b111 Y"
b111 ["
b111 k"
b111 m"
b111 w"
1%
1(
#3960000
0%
#3970000
1%
#3980000
0%
#3990000
1%
#4000000
0%
0(
#4010000
1%
#4020000
1'
0%
b10 |"
#4030000
1%
#4040000
0%
#4050000
b1 i"
1)"
b1000 ,"
b10 Z"
b10 \"
b10 j"
0g"
0^"
b0 Y"
b0 ["
b0 k"
b0 m"
b0 w"
b111 +"
1%
1(
#4060000
0%
#4070000
1%
#4080000
0%
#4090000
1%
#4100000
0%
0(
#4110000
1%
#4120000
0%
#4130000
1%
#4140000
0%
#4150000
0)"
b1 ,"
b10 i"
0-
b0 +"
b1 Y"
b1 ["
b1 k"
b1 m"
b1 w"
1%
1(
#4160000
0%
#4170000
1%
#4180000
0%
#4190000
1%
#4200000
0%
0(
#4210000
1%
#4220000
0%
#4230000
1%
#4240000
0%
#4250000
b11 i"
b10 ,"
b10 Y"
b10 ["
b10 k"
b10 m"
b10 w"
b1 +"
1%
1(
#4260000
0%
#4270000
1%
#4280000
0%
#4290000
1%
#4300000
0%
0(
#4310000
1%
#4320000
0%
#4330000
1%
#4340000
0%
#4350000
b11 ,"
b100 i"
b10 +"
b11 Y"
b11 ["
b11 k"
b11 m"
b11 w"
1%
1(
#4360000
0%
#4370000
1%
#4380000
0%
#4390000
1%
#4400000
0%
0(
#4410000
1%
#4420000
0%
#4430000
1%
#4440000
0%
#4450000
b101 i"
1*"
b100 ,"
0l"
1q"
b1 t"
b100 Y"
b100 ["
b100 k"
b100 m"
b100 w"
b11 +"
1%
1(
#4460000
0%
#4470000
1%
#4480000
0%
#4490000
1%
#4500000
0%
0(
#4510000
1%
#4520000
0%
#4530000
1%
#4540000
0%
#4550000
0*"
b101 ,"
b110 i"
b10000000 x"
1-
b100 +"
b101 Y"
b101 ["
b101 k"
b101 m"
b101 w"
1s"
0q"
b11 t"
1P"
1%
1(
#4560000
0%
#4570000
1%
#4580000
0%
#4590000
1%
#4600000
0%
0(
#4610000
1%
#4620000
0%
#4630000
1%
#4640000
0%
#4650000
b111 i"
b110 ,"
b110 Y"
b110 ["
b110 k"
b110 m"
b110 w"
b101 +"
1%
1(
#4660000
0%
#4670000
1%
#4680000
0%
#4690000
1%
#4700000
0%
0(
#4710000
1%
#4720000
0%
#4730000
1%
#4740000
0%
#4750000
b111 ,"
b11 h"
b0 i"
1l"
b110 +"
1g"
1^"
b111 Y"
b111 ["
b111 k"
b111 m"
b111 w"
0s"
b0 t"
1%
1(
#4760000
0%
#4770000
1%
#4780000
0%
#4790000
1%
#4800000
0%
0(
#4810000
1%
#4820000
0'
0%
b11 |"
#4830000
1%
#4840000
0%
#4850000
b1000000 x"
b1 i"
1)"
b1000 ,"
1u"
b10000000 ?
b10000000 L
b10000000 /"
b10000000 R"
b10000000 v"
b10000000 y"
0P"
b11 Z"
b11 \"
b11 j"
0g"
0^"
b0 Y"
b0 ["
b0 k"
b0 m"
b0 w"
b111 +"
1%
1(
#4860000
0%
#4870000
1%
#4880000
0%
#4890000
1%
#4900000
0%
0(
#4910000
1%
#4920000
0%
#4930000
1%
#4940000
0%
#4950000
0)"
b1 ,"
b10 i"
0-
b0 +"
b1 Y"
b1 ["
b1 k"
b1 m"
b1 w"
1%
1(
#4960000
0%
#4970000
1%
#4980000
0%
#4990000
1%
#5000000
0%
0(
#5010000
1%
#5020000
0%
#5030000
1%
#5040000
0%
#5050000
b11 i"
b10 ,"
b10 Y"
b10 ["
b10 k"
b10 m"
b10 w"
b1 +"
1%
1(
#5060000
0%
#5070000
1%
#5080000
0%
#5090000
1%
#5100000
0%
0(
#5110000
1%
#5120000
0%
#5130000
1%
#5140000
0%
#5150000
b11 ,"
b100 i"
b10 +"
b11 Y"
b11 ["
b11 k"
b11 m"
b11 w"
1%
1(
#5160000
0%
#5170000
1%
#5180000
0%
#5190000
1%
#5200000
0%
0(
#5210000
1%
#5220000
0%
#5230000
1%
#5240000
0%
