src/system/system.vcd
$date
	Mon Sep 04 00:42:51 2023
$end
$version
	Icarus Verilog
$end
$timescale
	100ps
$end
$scope module tb $end
$var wire 1 ! tb_tx $end
$var parameter 32 " REF_CLK $end
$var parameter 32 # UART_RX_CLK $end
$var parameter 32 $ UART_TX_CLK $end
$var reg 10 % current_value [9:0] $end
$var reg 1 & tb_ref_clk $end
$var reg 1 ' tb_rst $end
$var reg 1 ( tb_rx $end
$var reg 1 ) tb_uart_clk $end
$scope function uart_frame $end
$var reg 8 * data [7:0] $end
$upscope $end
$scope module dut $end
$var wire 8 + clk_div_config [7:0] $end
$var wire 1 & i_ref_clk $end
$var wire 1 ' i_rst $end
$var wire 1 ( i_rx $end
$var wire 1 ) i_uart_clk $end
$var wire 8 , uart_config [7:0] $end
$var wire 1 - uart_rst $end
$var wire 1 . tx_clk $end
$var wire 1 / tx_busy $end
$var wire 1 0 sync_tx_signal $end
$var wire 8 1 sync_tx_data [7:0] $end
$var wire 1 2 sync_rx_signal $end
$var wire 8 3 sync_rx_data [7:0] $end
$var wire 1 4 rf_ld_data $end
$var wire 1 5 rf_ld_add $end
$var wire 1 6 rf_en_w $end
$var wire 1 7 rf_en_r $end
$var wire 1 8 rf_data_source $end
$var wire 2 9 rf_add_source [1:0] $end
$var wire 1 : reg_file_valid $end
$var wire 1 ; ref_rst $end
$var wire 1 < out_source $end
$var wire 1 ! o_tx $end
$var wire 1 = async_tx_signal $end
$var wire 8 > async_tx_data [7:0] $end
$var wire 1 ? async_rx_signal $end
$var wire 8 @ async_rx_data [7:0] $end
$var wire 1 A alu_valid $end
$var wire 1 B alu_ld_func_en $end
$var wire 1 C alu_en $end
$var wire 1 D alu_clk_en $end
$scope module u0 $end
$var wire 1 E i_async $end
$var wire 1 & i_clk $end
$var wire 1 ' i_rst $end
$var parameter 32 F WIDTH $end
$var reg 1 G meta_0 $end
$var reg 1 ; o_sync $end
$upscope $end
$scope module u1 $end
$var wire 1 H i_async $end
$var wire 1 ) i_clk $end
$var wire 1 ' i_rst $end
$var parameter 32 I WIDTH $end
$var reg 1 J meta_0 $end
$var reg 1 - o_sync $end
$upscope $end
$scope module u2 $end
$var wire 1 & i_clk $end
$var wire 1 ; i_rst $end
$var wire 1 K pulse $end
$var wire 1 L sync_en $end
$var wire 1 ? i_async_en $end
$var wire 8 M i_async_data [7:0] $end
$var parameter 32 N WIDTH $end
$var reg 1 O en_reg $end
$var reg 8 P mux_out [7:0] $end
$var reg 8 Q o_sync_data [7:0] $end
$var reg 1 2 o_sync_en $end
$scope module u0 $end
$var wire 1 & i_clk $end
$var wire 1 ; i_rst $end
$var wire 1 ? i_async $end
$var parameter 32 R WIDTH $end
$var reg 1 S meta_0 $end
$var reg 1 L o_sync $end
$upscope $end
$upscope $end
$scope module u3 $end
$var wire 1 - i_rst $end
$var wire 1 T pulse $end
$var wire 1 U sync_en $end
$var wire 1 . i_clk $end
$var wire 1 = i_async_en $end
$var wire 8 V i_async_data [7:0] $end
$var parameter 32 W WIDTH $end
$var reg 1 X en_reg $end
$var reg 8 Y mux_out [7:0] $end
$var reg 8 Z o_sync_data [7:0] $end
$var reg 1 0 o_sync_en $end
$scope module u0 $end
$var wire 1 - i_rst $end
$var wire 1 . i_clk $end
$var wire 1 = i_async $end
$var parameter 32 [ WIDTH $end
$var reg 1 \ meta_0 $end
$var reg 1 U o_sync $end
$upscope $end
$upscope $end
$scope module u4 $end
$var wire 1 & i_clk $end
$var wire 1 ; i_rst $end
$var wire 8 ] i_rx_data [7:0] $end
$var wire 1 2 i_rx_data_valid $end
$var wire 8 ^ o_clk_div_config [7:0] $end
$var wire 8 _ o_uart_config [7:0] $end
$var wire 8 ` reg_file_out [7:0] $end
$var wire 1 : o_reg_file_valid $end
$var wire 1 A o_alu_valid $end
$var wire 1 8 i_rf_data_source $end
$var wire 2 a i_rf_add_source [1:0] $end
$var wire 1 < i_output_source $end
$var wire 1 4 i_ld_rf_data $end
$var wire 1 5 i_ld_rf_add $end
$var wire 1 B i_ld_alu_func $end
$var wire 1 6 i_en_w $end
$var wire 1 7 i_en_r $end
$var wire 1 C i_alu_en $end
$var wire 1 D i_alu_clk_en $end
$var wire 8 b alu_out [7:0] $end
$var wire 8 c alu_op_1 [7:0] $end
$var wire 8 d alu_op_0 [7:0] $end
$var wire 1 e alu_gated_clk $end
$var reg 4 f add_in_reg [3:0] $end
$var reg 8 g data_in_reg [7:0] $end
$var reg 4 h func_reg [3:0] $end
$var reg 8 i o_tx_data [7:0] $end
$scope module u0 $end
$var wire 4 j i_func [3:0] $end
$var wire 1 ; i_rst $end
$var wire 1 C i_en $end
$var wire 1 e i_clk $end
$var wire 8 k i_b [7:0] $end
$var wire 8 l i_a [7:0] $end
$var reg 8 m alu_out_com [7:0] $end
$var reg 1 n alu_valid_flag $end
$var reg 8 o o_alu_out [7:0] $end
$var reg 1 A o_valid $end
$upscope $end
$scope module u1 $end
$var wire 4 p i_add [3:0] $end
$var wire 1 & i_clk $end
$var wire 8 q i_data [7:0] $end
$var wire 1 ; i_rst $end
$var wire 8 r o_reg_0 [7:0] $end
$var wire 8 s o_reg_1 [7:0] $end
$var wire 8 t o_reg_2 [7:0] $end
$var wire 8 u o_reg_3 [7:0] $end
$var wire 1 : o_valid $end
$var wire 1 6 i_en_w $end
$var wire 1 7 i_en_r $end
$var reg 8 v o_data [7:0] $end
$scope begin $ivl_for_loop0 $end
$var integer 32 w i [31:0] $end
$upscope $end
$upscope $end
$scope module u2 $end
$var wire 1 & i_clk $end
$var wire 1 e o_clk_gated $end
$var wire 1 D i_en $end
$var reg 1 x latch_out $end
$upscope $end
$upscope $end
$scope module u5 $end
$var wire 1 A i_alu_valid $end
$var wire 1 & i_clk $end
$var wire 1 : i_reg_file_valid $end
$var wire 1 ; i_rst $end
$var wire 8 y i_rx_data [7:0] $end
$var wire 1 2 i_rx_valid $end
$var wire 1 / i_tx_busy $end
$var parameter 4 z FUNC_NO_OP $end
$var parameter 4 { IDLE $end
$var parameter 4 | LD_ADD_RX_R $end
$var parameter 4 } LD_ADD_RX_W $end
$var parameter 4 ~ LD_ALU_OUT $end
$var parameter 4 !" LD_D_RX $end
$var parameter 4 "" LD_FUNC $end
$var parameter 4 #" LD_OP_0 $end
$var parameter 4 $" LD_OP_1 $end
$var parameter 4 %" LD_RF_OUT $end
$var parameter 4 &" SEND_ALU $end
$var parameter 4 '" WRITE $end
$var parameter 4 (" WRITE_ALU $end
$var reg 4 )" current_state [3:0] $end
$var reg 4 *" next_state [3:0] $end
$var reg 1 D o_alu_clk_en $end
$var reg 1 C o_alu_en $end
$var reg 1 7 o_en_r $end
$var reg 1 6 o_en_w $end
$var reg 1 B o_ld_alu_func $end
$var reg 1 5 o_ld_rf_add $end
$var reg 1 4 o_ld_rf_data $end
$var reg 1 < o_output_source $end
$var reg 2 +" o_rf_add_source [1:0] $end
$var reg 1 8 o_rf_data_source $end
$var reg 1 = o_tx_valid $end
$upscope $end
$scope module u6 $end
$var wire 1 ) i_clk $end
$var wire 5 ," i_div_ratio [4:0] $end
$var wire 1 - i_rst $end
$var wire 1 -" cnt_done $end
$var wire 1 ." cnt_center $end
$var reg 5 /" cnt [4:0] $end
$var reg 5 0" cnt_comb [4:0] $end
$var reg 1 . o_clk $end
$upscope $end
$scope module u7 $end
$var wire 1 ) i_clk $end
$var wire 8 1" i_config [7:0] $end
$var wire 1 - i_rst $end
$var wire 1 ( i_rx $end
$var wire 8 2" i_sync_data [7:0] $end
$var wire 1 0 i_sync_sig $end
$var wire 1 . i_tx_clk $end
$var wire 1 / o_tx_busy $end
$var wire 1 ! o_tx $end
$var wire 1 ? o_sync_sig $end
$var wire 8 3" o_sync_data [7:0] $end
$scope module u0 $end
$var wire 1 . i_clk $end
$var wire 8 4" i_data [7:0] $end
$var wire 1 0 i_data_valid $end
$var wire 1 5" i_en_par $end
$var wire 1 6" i_par_type $end
$var wire 1 - i_rst $end
$var wire 1 7" ser_en $end
$var wire 1 8" ser_done $end
$var wire 1 9" ser_bit $end
$var wire 1 :" par_bit $end
$var wire 1 ! o_tx $end
$var wire 1 / o_busy $end
$var wire 2 ;" mux_sel [1:0] $end
$scope module u0 $end
$var wire 1 . i_clk $end
$var wire 8 <" i_data [7:0] $end
$var wire 1 0 i_data_valid $end
$var wire 1 - i_rst $end
$var wire 1 9" o_ser_out $end
$var wire 1 8" o_done $end
$var wire 1 7" i_en $end
$var wire 1 / i_busy $end
$var parameter 32 =" COUNTER_WIDTH $end
$var reg 4 >" counter_comb [3:0] $end
$var reg 3 ?" counter_reg [2:0] $end
$var reg 8 @" shift_comb [7:0] $end
$var reg 8 A" shift_reg [7:0] $end
$upscope $end
$scope module u1 $end
$var wire 1 . i_clk $end
$var wire 1 0 i_data_valid $end
$var wire 1 5" i_en_par $end
$var wire 1 - i_rst $end
$var wire 1 8" i_ser_done $end
$var parameter 3 B" IDLE $end
$var parameter 3 C" PAR $end
$var parameter 3 D" SER_BYTE $end
$var parameter 3 E" START $end
$var parameter 3 F" STOP $end
$var reg 3 G" current_state [2:0] $end
$var reg 3 H" next_state [2:0] $end
$var reg 1 / o_busy $end
$var reg 2 I" o_mux_sel [1:0] $end
$var reg 1 7" o_ser_en $end
$upscope $end
$scope module u2 $end
$var wire 8 J" i_data [7:0] $end
$var wire 1 6" i_type $end
$var wire 1 K" x_p $end
$var wire 1 :" o_parity $end
$upscope $end
$scope module u3 $end
$var wire 1 :" i_par_bit $end
$var wire 2 L" i_sel [1:0] $end
$var wire 1 9" i_ser_bit $end
$var wire 1 M" i_start_bit $end
$var wire 1 N" i_stop_bit $end
$var reg 1 ! o_ser_out $end
$upscope $end
$upscope $end
$scope module u1 $end
$var wire 1 ) i_clk $end
$var wire 1 O" i_en_par $end
$var wire 1 P" i_par_type $end
$var wire 5 Q" i_prescale [4:0] $end
$var wire 1 - i_rst $end
$var wire 1 ( i_rx $end
$var wire 1 R" str_err $end
$var wire 1 S" stp_err $end
$var wire 1 T" sampled_bit $end
$var wire 1 U" par_err $end
$var wire 1 ? o_data_valid $end
$var wire 8 V" o_data [7:0] $end
$var wire 1 W" en_str_chk $end
$var wire 1 X" en_stp_chk $end
$var wire 1 Y" en_sample $end
$var wire 1 Z" en_par_chk $end
$var wire 1 [" en_deser $end
$var wire 1 \" en_cnt $end
$var wire 3 ]" edge_cnt [2:0] $end
$var wire 4 ^" bit_cnt [3:0] $end
$scope module u0 $end
$var wire 1 ) i_clk $end
$var wire 1 O" i_en_par $end
$var wire 1 P" i_par_type $end
$var wire 1 - i_rst $end
$var wire 1 ( i_rx $end
$var wire 1 R" i_str_err $end
$var wire 1 S" i_stp_err $end
$var wire 1 U" i_par_err $end
$var wire 3 _" i_edge_cnt [2:0] $end
$var wire 4 `" i_bit_cnt [3:0] $end
$var wire 1 a" byte_done $end
$var wire 1 b" bit_done $end
$var parameter 3 c" BYTE $end
$var parameter 3 d" ERROR $end
$var parameter 3 e" IDLE $end
$var parameter 3 f" PARITY $end
$var parameter 3 g" START $end
$var parameter 3 h" STOP $end
$var reg 3 i" current_state [2:0] $end
$var reg 3 j" next_state [2:0] $end
$var reg 1 ? o_data_valid $end
$var reg 1 \" o_en_cnt $end
$var reg 1 [" o_en_deser $end
$var reg 1 Z" o_en_par_chk $end
$var reg 1 Y" o_en_sample $end
$var reg 1 X" o_en_stp_chk $end
$var reg 1 W" o_en_str_chk $end
$upscope $end
$scope module u1 $end
$var wire 1 ) i_clk $end
$var wire 1 \" i_en_cnt $end
$var wire 1 - i_rst $end
$var wire 1 k" bit_cnt_done $end
$var reg 4 l" bit_cnt_comb [3:0] $end
$var reg 3 m" edge_cnt_comb [2:0] $end
$var reg 4 n" o_bit_cnt [3:0] $end
$var reg 3 o" o_edge_cnt [2:0] $end
$upscope $end
$scope module u2 $end
$var wire 1 p" all_zeros $end
$var wire 1 ) i_clk $end
$var wire 3 q" i_edge_cnt [2:0] $end
$var wire 1 Y" i_en_samp $end
$var wire 5 r" i_prescale [4:0] $end
$var wire 1 - i_rst $end
$var wire 1 ( i_rx $end
$var wire 3 s" right [2:0] $end
$var wire 3 t" left [2:0] $end
$var wire 1 u" even_ones $end
$var wire 3 v" center [2:0] $end
$var wire 1 w" all_ones $end
$var reg 1 T" o_sampled_bit $end
$var reg 2 x" samples [1:0] $end
$upscope $end
$scope module u3 $end
$var wire 1 ) i_clk $end
$var wire 1 Z" i_en_chk $end
$var wire 1 P" i_par_type $end
$var wire 1 - i_rst $end
$var wire 1 T" i_sampled_bit $end
$var wire 1 y" par_calc $end
$var wire 8 z" i_data [7:0] $end
$var reg 1 U" o_par_err $end
$upscope $end
$scope module u4 $end
$var wire 1 ) i_clk $end
$var wire 1 W" i_en_chk $end
$var wire 1 - i_rst $end
$var wire 1 T" i_sampled_bit $end
$var reg 1 R" o_str_err $end
$upscope $end
$scope module u5 $end
$var wire 1 ) i_clk $end
$var wire 1 X" i_en_chk $end
$var wire 1 - i_rst $end
$var wire 1 T" i_sampled_bit $end
$var reg 1 S" o_stp_err $end
$upscope $end
$scope module u6 $end
$var wire 1 ) i_clk $end
$var wire 3 {" i_edge_cnt [2:0] $end
$var wire 1 [" i_en_deser $end
$var wire 1 - i_rst $end
$var wire 1 T" i_sampled_bit $end
$var reg 8 |" data_comb [7:0] $end
$var reg 8 }" o_data [7:0] $end
$upscope $end
$upscope $end
$upscope $end
$upscope $end
$scope begin $ivl_for_loop2 $end
$var integer 32 ~" j [31:0] $end
$scope begin $ivl_for_loop3 $end
$var integer 32 !# i [31:0] $end
$upscope $end
$upscope $end
$scope task alu_nop_command $end
$var reg 4 "# func [3:0] $end
$upscope $end
$scope task alu_op_command $end
$var reg 4 ## func [3:0] $end
$var reg 8 $# op_0 [7:0] $end
$var reg 8 %# op_1 [7:0] $end
$upscope $end
$scope task alu_w_command $end
$var reg 4 &# func [3:0] $end
$var reg 8 '# op_0 [7:0] $end
$var reg 8 (# op_1 [7:0] $end
$upscope $end
$scope task reset $end
$upscope $end
$scope task rf_read_command $end
$var reg 4 )# add [3:0] $end
$upscope $end
$scope task rf_write_command $end
$var reg 4 *# add [3:0] $end
$var reg 8 +# data [7:0] $end
$upscope $end
$scope task rx_frame $end
$var reg 8 ,# command [7:0] $end
$upscope $end
$scope task send_frame $end
$var reg 11 -# frame [10:0] $end
$scope begin $ivl_for_loop1 $end
$var integer 32 .# i [31:0] $end
$upscope $end
$upscope $end
$upscope $end
$enddefinitions $end
$comment Show the parameter values. $end
$dumpall
b100 h"
b1 g"
b11 f"
b0 e"
b101 d"
b10 c"
b111 F"
b1 E"
b10 D"
b11 C"
b0 B"
b11 ="
b1100 ("
b1001 '"
b1010 &"
b11 %"
b110 $"
b101 #"
b100 ""
b1 !"
b10 ~
b111 }
b1000 |
b0 {
b1011 z
b1 [
b1000 W
b1 R
b1000 N
b1 I
b1 F
b1100100000 $
b1100100 #
b10100 "
$end
#0
$dumpvars
bx .#
bx -#
bx ,#
bx +#
bx *#
bx )#
bx (#
bx '#
bx &#
bx %#
bx $#
bx ##
bx "#
bx !#
bx ~"
bx }"
bx |"
bx {"
bx z"
xy"
bx x"
xw"
bx v"
xu"
bx t"
bx s"
bx r"
bx q"
xp"
bx o"
bx n"
bx m"
bx l"
xk"
b0 j"
bx i"
xb"
xa"
bx `"
bx _"
bx ^"
bx ]"
x\"
x["
xZ"
xY"
xX"
xW"
bx V"
xU"
xT"
xS"
xR"
bx Q"
xP"
xO"
1N"
0M"
bx L"
xK"
bx J"
bx I"
bx H"
bx G"
bx A"
bx @"
bx ?"
bx >"
bx <"
bx ;"
x:"
x9"
x8"
x7"
x6"
x5"
bx 4"
bx 3"
bx 2"
bx 1"
bx 0"
bx /"
x."
x-"
bx ,"
bx +"
bx *"
bx )"
bx y
xx
bx w
bx v
bx u
bx t
bx s
bx r
bx q
bx p
bx o
xn
bx m
bx l
bx k
bx j
bx i
bx h
bx g
bx f
0e
bx d
bx c
bx b
bx a
bx `
bx _
bx ^
bx ]
x\
bx Z
bx Y
xX
bx V
xU
xT
xS
bx Q
bx P
xO
bx M
xL
xK
xJ
1H
xG
1E
xD
xC
xB
xA
bx @
x?
bx >
x=
x<
x;
x:
bx 9
x8
x7
x6
x5
x4
bx 3
x2
bx 1
x0
x/
x.
x-
bx ,
bx +
bx *
0)
1(
1'
0&
bx %
x!
$end
#100
0A
1G
xe
1&
#150
0G
0J
0'
#200
1'
0e
0&
#300
b0 H"
b0 m
1n
0=
0<
b0 9
b0 a
b0 +"
05
08
04
06
0:
07
0B
0D
0C
b0 *"
b11 t"
b101 s"
b100 v"
b1000 ,"
06"
15"
0P"
1O"
b1000 Q"
b1000 r"
b0 `
b0 v
b1000 +
b1000 ^
b1000 u
b100001 ,
b100001 _
b100001 t
b100001 1"
b0 c
b0 k
b0 s
b0 d
b0 l
b0 r
0S
0O
02
b0 3
b0 Q
b0 ]
b0 y
b0 h
b0 j
b0 g
b0 q
b0 f
b0 p
b0 >
b0 V
b0 i
b0 )"
b0 b
b0 o
b10000 w
0;
1G
xe
1&
#400
0x
0e
0&
#500
1!
b0 Y
b11 ;"
b11 I"
b11 L"
0/
07"
b0 P
0-"
0."
b1 0"
08"
0:"
b0 @"
09"
b1 >"
0y"
1p"
0\
0X
00
0K"
b0 1
b0 Z
b0 2"
b0 4"
b0 <"
b0 J"
b0 A"
b0 ?"
b0 G"
b0 @
b0 M
b0 3"
b0 V"
b0 z"
b0 }"
0w"
0u"
b0 x"
b0 /"
0.
0?
0W"
0X"
0Z"
0["
0\"
0Y"
b1 m"
b0 l"
b0 |"
1;
0-
1J
b0 i"
0k"
0b"
b0 ]"
b0 _"
b0 o"
b0 q"
b0 {"
0a"
b0 ^"
b0 `"
b0 n"
0T"
0U"
0R"
0S"
b10000 w
1&
1)
#600
0&
#700
0K
0L
xO
x2
1&
#800
0&
#900
02
0O
1&
#1000
0&
0)
#1100
1&
#1200
0&
#1300
1&
#1400
0&
#1500
1-
1&
1)
#1600
0&
#1700
1&
#1800
0&
#1900
1&
#2000
0&
0)
#2100
1&
#2200
0&
#2300
1&
#2400
0&
#2500
b10 0"
b1 /"
1&
1)
#2600
0&
#2700
1&
#2800
0&
#2900
1&
#3000
0&
0)
#3100
1&
#3200
0&
#3300
1&
#3400
0&
#3500
b11 0"
b10 /"
1&
1)
#3600
0&
#3700
1&
#3800
0&
#3900
1&
#4000
0&
0)
#4100
1&
#4200
0&
#4300
1&
#4400
0&
#4500
1."
b100 0"
b11 /"
1&
1)
#4600
0&
#4700
1&
#4800
0&
#4900
1&
#5000
0&
0)
#5100
1&
#5200
0&
#5300
1&
#5400
0&
#5500
b0x H"
0T
x0
xX
0U
0."
b101 0"
1.
b100 /"
1&
1)
#5600
0&
#5700
1&
#5800
0&
#5900
1&
#6000
0&
0)
#6100
1&
#6200
0&
#6300
1&
#6400
0&
#6500
b110 0"
b101 /"
1&
1)
#6600
0&
#6700
1&
#6800
0&
#6900
1&
#7000
0&
0)
#7100
1&
#7200
0&
#7300
1&
#7400
0&
#7500
b111 0"
b110 /"
1&
1)
#7600
0&
#7700
1&
#7800
0&
#7900
1&
#8000
0&
0)
#8100
1&
#8200
0&
#8300
1&
#8400
0&
#8500
1-"
b1000 0"
b111 /"
1&
1)
#8600
0&
#8700
1&
#8800
0&
#8900
1&
#9000
0&
0)
#9100
1&
#9200
0&
#9300
1&
#9400
0&
#9500
0-"
b1 0"
0.
b0 /"
1&
1)
#9600
0&
#9700
1&
#9800
0&
#9900
1&
#10000
0&
0)
#10100
1&
#10200
0&
#10300
1&
#10400
0&
#10500
b10 0"
b1 /"
1&
1)
#10600
0&
#10700
1&
#10800
0&
#10900
1&
#11000
0&
0)
#11100
1&
#11200
0&
#11300
1&
#11400
0&
#11500
b11 0"
b10 /"
1&
1)
#11600
0&
#11700
1&
#11800
0&
#11900
1&
#12000
0&
0)
#12100
1&
#12200
0&
#12300
1&
#12400
0&
#12500
1."
b100 0"
b11 /"
1&
1)
#12600
0&
#12700
1&
#12800
0&
#12900
1&
#13000
0&
0)
#13100
1&
#13200
0&
#13300
1&
#13400
0&
#13500
0!
b0 ;"
b0 I"
b0 L"
b0 H"
0X
00
b0x G"
0."
b101 0"
1.
b100 /"
1&
1)
#13600
0&
#13700
1&
#13800
0&
#13900
1&
#14000
0&
0)
#14100
1&
#14200
0&
#14300
1&
#14400
0&
#14500
b110 0"
b101 /"
1&
1)
#14600
0&
#14700
1&
#14800
0&
#14900
1&
#15000
0&
0)
#15100
1&
#15200
0&
#15300
1&
#15400
0&
#15500
b111 0"
b110 /"
1&
1)
#15600
0&
#15700
1&
#15800
0&
#15900
1&
#16000
0&
0)
b0 ~"
#16100
1&
#16200
0&
#16300
1&
#16400
0&
#16500
1-"
b1000 0"
b111 /"
1&
1)
#16600
0&
#16700
1&
#16800
0&
#16900
1&
#17000
0&
0)
#17100
1&
#17200
0&
#17300
1&
#17400
0&
#17500
0-"
b1 0"
0.
b0 /"
1&
1)
#17600
0&
#17700
1&
#17800
0&
#17900
1&
#18000
0&
0)
#18100
1&
#18200
0&
#18300
1&
#18400
0&
#18500
b10 0"
b1 /"
1&
1)
#18600
0&
#18700
1&
#18800
0&
#18900
1&
#19000
0&
0)
#19100
1&
#19200
0&
#19300
1&
#19400
0&
#19500
b11 0"
b10 /"
1&
1)
#19600
0&
#19700
1&
#19800
0&
#19900
1&
#20000
0&
0)
#20100
1&
#20200
0&
#20300
1&
#20400
0&
#20500
1."
b100 0"
b11 /"
1&
1)
#20600
0&
#20700
1&
#20800
0&
#20900
1&
#21000
0&
0)
#21100
1&
#21200
0&
#21300
1&
#21400
0&
#21500
1!
b11 ;"
b11 I"
b11 L"
b0 G"
0."
b101 0"
1.
b100 /"
1&
1)
#21600
0&
#21700
1&
#21800
0&
#21900
1&
#22000
0&
0)
#22100
1&
#22200
0&
#22300
1&
#22400
0&
#22500
b110 0"
b101 /"
1&
1)
#22600
0&
#22700
1&
#22800
0&
#22900
1&
#23000
0&
0)
#23100
1&
#23200
0&
#23300
1&
#23400
0&
#23500
b111 0"
b110 /"
1&
1)
#23600
0&
#23700
1&
#23800
0&
#23900
1&
#24000
0&
0)
#24100
1&
#24200
b1 j"
0(
0&
b0 .#
b10110011000 -#
b11001100 *
b11001100 ,#
b10 ##
b101 %#
b11 $#
#24300
1&
#24400
0&
#24500
1W"
1\"
1Y"
1-"
b1000 0"
b1 i"
b111 /"
1&
1)
#24600
0&
#24700
1&
#24800
0&
#24900
1&
#25000
0&
0)
#25100
1&
#25200
0&
#25300
1&
#25400
0&
#25500
0-"
b1 0"
b10 m"
0.
b0 /"
b1 ]"
b1 _"
b1 o"
b1 q"
b1 {"
1&
1)
#25600
0&
#25700
1&
#25800
0&
#25900
1&
#26000
0&
0)
#26100
1&
#26200
0&
#26300
1&
#26400
0&
#26500
b11 m"
b10 0"
b10 ]"
b10 _"
b10 o"
b10 q"
b10 {"
b1 /"
1&
1)
#26600
0&
#26700
1&
#26800
0&
#26900
1&
#27000
0&
0)
#27100
1&
#27200
0&
#27300
1&
#27400
0&
#27500
b11 0"
b100 m"
b10 /"
b11 ]"
b11 _"
b11 o"
b11 q"
b11 {"
1&
1)
#27600
0&
#27700
1&
#27800
0&
#27900
1&
#28000
0&
0)
#28100
1&
#28200
0&
#28300
1&
#28400
0&
#28500
b101 m"
1."
b100 0"
b100 ]"
b100 _"
b100 o"
b100 q"
b100 {"
b11 /"
1&
1)
#28600
0&
#28700
1&
#28800
0&
#28900
1&
#29000
0&
0)
#29100
1&
#29200
0&
#29300
1&
#29400
0&
#29500
0."
b101 0"
b110 m"
1.
b100 /"
b101 ]"
b101 _"
b101 o"
b101 q"
b101 {"
1&
1)
#29600
0&
#29700
1&
#29800
0&
#29900
1&
#30000
0&
0)
#30100
1&
#30200
0&
#30300
1&
#30400
0&
#30500
b111 m"
b110 0"
b110 ]"
b110 _"
b110 o"
b110 q"
b110 {"
b101 /"
1&
1)
#30600
0&
#30700
1&
#30800
0&
#30900
1&
#31000
0&
0)
#31100
1&
#31200
0&
#31300
1&
#31400
0&
#31500
b111 0"
b1 l"
b10 j"
b0 m"
b110 /"
1k"
1b"
b111 ]"
b111 _"
b111 o"
b111 q"
b111 {"
1&
1)
#31600
0&
#31700
1&
#31800
0&
#31900
1&
#32000
0&
0)
#32100
1&
#32200
0&
b1 .#
#32300
1&
#32400
0&
#32500
b1 m"
0W"
1["
1-"
b1000 0"
b1 ^"
b1 `"
b1 n"
0k"
0b"
b0 ]"
b0 _"
b0 o"
b0 q"
b0 {"
b10 i"
b111 /"
1&
1)
#32600
0&
#32700
1&
#32800
0&
#32900
1&
#33000
0&
0)
#33100
1&
#33200
0&
#33300
1&
#33400
0&
#33500
0-"
b1 0"
b10 m"
0.
b0 /"
b1 ]"
b1 _"
b1 o"
b1 q"
b1 {"
1&
1)
#33600
0&
#33700
1&
#33800
0&
#33900
1&
#34000
0&
0)
#34100
1&
#34200
0&
#34300
1&
#34400
0&
#34500
b11 m"
b10 0"
b10 ]"
b10 _"
b10 o"
b10 q"
b10 {"
b1 /"
1&
1)
#34600
0&
#34700
1&
#34800
0&
#34900
1&
#35000
0&
0)
#35100
1&
#35200
0&
#35300
1&
#35400
0&
#35500
b11 0"
b100 m"
b10 /"
b11 ]"
b11 _"
b11 o"
b11 q"
b11 {"
1&
1)
#35600
0&
#35700
1&
#35800
0&
#35900
1&
#36000
0&
0)
#36100
1&
#36200
0&
#36300
1&
#36400
0&
#36500
b101 m"
1."
b100 0"
b100 ]"
b100 _"
b100 o"
b100 q"
b100 {"
b11 /"
1&
1)
#36600
0&
#36700
1&
#36800
0&
#36900
1&
#37000
0&
0)
#37100
1&
#37200
0&
#37300
1&
#37400
0&
#37500
0."
b101 0"
b110 m"
1.
b100 /"
b101 ]"
b101 _"
b101 o"
b101 q"
b101 {"
1&
1)
#37600
0&
#37700
1&
#37800
0&
#37900
1&
#38000
0&
0)
#38100
1&
#38200
0&
#38300
1&
#38400
0&
#38500
b111 m"
b110 0"
b110 ]"
b110 _"
b110 o"
b110 q"
b110 {"
b101 /"
1&
1)
#38600
0&
#38700
1&
#38800
0&
#38900
1&
#39000
0&
0)
#39100
1&
#39200
0&
#39300
1&
#39400
0&
#39500
b111 0"
b10 l"
b0 m"
b110 /"
1k"
1b"
b111 ]"
b111 _"
b111 o"
b111 q"
b111 {"
1&
1)
#39600
0&
#39700
1&
#39800
0&
#39900
1&
#40000
0&
0)
#40100
1&
#40200
0&
b10 .#
#40300
1&
#40400
0&
#40500
b1 m"
1-"
b1000 0"
b10 ^"
b10 `"
b10 n"
0k"
0b"
b0 ]"
b0 _"
b0 o"
b0 q"
b0 {"
b111 /"
1&
1)
#40600
0&
#40700
1&
#40800
0&
#40900
1&
#41000
0&
0)
#41100
1&
#41200
0&
#41300
1&
#41400
0&
#41500
0-"
b1 0"
b10 m"
0.
b0 /"
b1 ]"
b1 _"
b1 o"
b1 q"
b1 {"
1&
1)
#41600
0&
#41700
1&
#41800
0&
#41900
1&
#42000
0&
0)
#42100
1&
#42200
0&
#42300
1&
#42400
0&
#42500
b11 m"
b10 0"
b10 ]"
b10 _"
b10 o"
b10 q"
b10 {"
b1 /"
1&
1)
#42600
0&
#42700
1&
#42800
0&
#42900
1&
#43000
0&
0)
#43100
1&
#43200
0&
#43300
1&
#43400
0&
#43500
b11 0"
b100 m"
b10 /"
b11 ]"
b11 _"
b11 o"
b11 q"
b11 {"
1&
1)
#43600
0&
#43700
1&
#43800
0&
#43900
1&
#44000
0&
0)
#44100
1&
#44200
0&
#44300
1&
#44400
0&
#44500
b101 m"
1."
b100 0"
b100 ]"
b100 _"
b100 o"
b100 q"
b100 {"
b11 /"
1&
1)
#44600
0&
#44700
1&
#44800
0&
#44900
1&
#45000
0&
0)
#45100
1&
#45200
0&
#45300
1&
#45400
0&
#45500
0."
b101 0"
b110 m"
1.
b100 /"
b101 ]"
b101 _"
b101 o"
b101 q"
b101 {"
1&
1)
#45600
0&
#45700
1&
#45800
0&
#45900
1&
#46000
0&
0)
#46100
1&
#46200
0&
#46300
1&
#46400
0&
#46500
b111 m"
b110 0"
b110 ]"
b110 _"
b110 o"
b110 q"
b110 {"
b101 /"
1&
1)
#46600
0&
#46700
1&
#46800
0&
#46900
1&
#47000
0&
0)
#47100
1&
#47200
0&
#47300
1&
#47400
0&
#47500
b111 0"
b11 l"
b0 m"
b110 /"
1k"
1b"
b111 ]"
b111 _"
b111 o"
b111 q"
b111 {"
1&
1)
#47600
0&
#47700
1&
#47800
0&
#47900
1&
#48000
0&
0)
#48100
1&
#48200
1(
0&
b11 .#
#48300
1&
#48400
0&
#48500
b1 m"
1-"
b1000 0"
b11 ^"
b11 `"
b11 n"
0k"
0b"
b0 ]"
b0 _"
b0 o"
b0 q"
b0 {"
b111 /"
1&
1)
#48600
0&
#48700
1&
#48800
0&
#48900
1&
#49000
0&
0)
#49100
1&
#49200
0&
#49300
1&
#49400
0&
#49500
0-"
b1 0"
b10 m"
0.
b0 /"
b1 ]"
b1 _"
b1 o"
b1 q"
b1 {"
1&
1)
#49600
0&
#49700
1&
#49800
0&
#49900
1&
#50000
0&
0)
#50100
1&
#50200
0&
#50300
1&
#50400
0&
#50500
b11 m"
b10 0"
b10 ]"
b10 _"
b10 o"
b10 q"
b10 {"
b1 /"
1&
1)
#50600
0&
#50700
1&
#50800
0&
#50900
1&
#51000
0&
0)
#51100
1&
#51200
0&
#51300
1&
#51400
0&
#51500
b11 0"
b100 m"
b10 /"
b11 ]"
b11 _"
b11 o"
b11 q"
b11 {"
1&
1)
#51600
0&
#51700
1&
#51800
0&
#51900
1&
#52000
0&
0)
#52100
1&
#52200
0&
#52300
1&
#52400
0&
