src/sync/design.vcd
$date
	Thu Aug 24 22:41:19 2023
$end
$version
	Icarus Verilog
$end
$timescale
	100ps
$end
$scope module tb $end
$var wire 8 ! tb_sync_data [7:0] $end
$var wire 1 " tb_sync $end
$var parameter 32 # CLK_CYCLE $end
$var parameter 32 $ RANDOM_STIMULUS_COUNT $end
$var reg 8 % tb_async_data [7:0] $end
$var reg 1 & tb_clk $end
$var reg 1 ' tb_en_async $end
$var reg 1 ( tb_rst $end
$scope module dut $end
$var wire 1 ' i_async_en $end
$var wire 8 ) i_aysnc_data [7:0] $end
$var wire 1 & i_clk $end
$var wire 1 ( i_rst $end
$var wire 1 * pulse $end
$var wire 1 + sync_en $end
$var parameter 32 , WIDTH $end
$var reg 1 - en_reg $end
$var reg 8 . mux_out [7:0] $end
$var reg 8 / o_sync_data [7:0] $end
$var reg 1 " o_sync_en $end
$scope module u0 $end
$var wire 1 ' i_async $end
$var wire 1 & i_clk $end
$var wire 1 ( i_rst $end
$var parameter 32 0 WIDTH $end
$var reg 1 1 meta_0 $end
$var reg 1 + o_sync $end
$upscope $end
$upscope $end
$scope begin $ivl_for_loop0 $end
$var integer 32 2 i [31:0] $end
$upscope $end
$scope task reset $end
$upscope $end
$upscope $end
$enddefinitions $end
$comment Show the parameter values. $end
$dumpall
b1 0
b1000 ,
b1100100 $
b10 #
$end
#0
$dumpvars
b0 2
x1
bx /
bx .
x-
x+
x*
b100100 )
1(
1'
0&
b100100 %
x"
bx !
$end
#10
11
1&
#15
b0x00x00 .
b0 !
b0 /
0"
0-
01
0(
#20
0&
0'
#21
1(
#30
0*
0+
x-
x"
b0x00x00 !
b0x00x00 /
1&
#40
0&
#50
0"
0-
1&
#60
0&
#70
1&
#80
0&
#90
1&
#100
0&
#110
1&
#120
0&
#130
1&
#140
0&
#150
1&
#160
0&
#170
1&
#180
0&
#190
1&
#200
b1001 %
b1001 )
1'
0&
b1 2
#210
11
1&
#220
0&
0'
#230
b1001 .
1*
1+
01
1&
#240
0&
#250
0*
b1001 !
b1001 /
1"
1-
0+
1&
#260
0&
#270
0-
0"
1&
#280
0&
#290
1&
#300
0&
#310
1&
#320
0&
#330
1&
#340
0&
#350
1&
#360
0&
#370
1&
#380
0&
#390
1&
#400
b1101 %
b1101 )
1'
0&
b10 2
#410
11
1&
#420
0&
0'
#430
b1101 .
1*
1+
01
1&
#440
0&
#450
0*
b1101 !
b1101 /
1"
1-
0+
1&
#460
0&
#470
0-
0"
1&
#480
0&
#490
1&
#500
0&
#510
1&
#520
b1100101 %
b1100101 )
1'
0&
b11 2
#530
11
1&
#540
0&
0'
#550
b1100101 .
1*
1+
01
1&
#560
0&
#570
0*
b1100101 !
b1100101 /
1"
1-
0+
1&
#580
0&
#590
0-
0"
1&
#600
0&
#610
1&
#620
b1 %
b1 )
1'
0&
b100 2
#630
11
1&
#640
0&
0'
#650
b1 .
1*
1+
01
1&
#660
0&
#670
0*
0+
1-
1"
b1 !
b1 /
1&
#680
0&
#690
0"
0-
1&
#700
0&
#710
1&
#720
0&
#730
1&
#740
0&
#750
1&
#760
0&
#770
1&
#780
b1110110 %
b1110110 )
1'
0&
b101 2
#790
11
1&
#800
0&
0'
#810
b1110110 .
1*
1+
01
1&
#820
0&
#830
0*
0+
1-
1"
b1110110 !
b1110110 /
1&
#840
0&
#850
0"
0-
1&
#860
0&
#870
1&
#880
0&
#890
1&
#900
b11101101 %
b11101101 )
1'
0&
b110 2
#910
11
1&
#920
b11111001 %
b11111001 )
b111 2
0&
1'
#930
b11111001 .
1*
1+
1&
#940
0&
0'
#950
0*
01
1-
1"
b11111001 !
b11111001 /
1&
#960
0&
#970
0"
0+
1&
#980
0&
#990
0-
1&
#1000
0&
#1010
1&
#1020
0&
#1030
1&
#1040
0&
#1050
1&
#1060
0&
#1070
1&
#1080
0&
#1090
1&
#1100
b11000101 %
b11000101 )
1'
0&
b1000 2
#1110
11
1&
#1120
0&
0'
#1130
b11000101 .
1*
1+
01
1&
#1140
0&
#1150
0*
0+
1-
1"
b11000101 !
b11000101 /
1&
#1160
0&
#1170
0"
0-
1&
#1180
0&
#1190
1&
#1200
b11100101 %
b11100101 )
1'
0&
b1001 2
#1210
11
1&
#1220
0&
0'
#1230
b11100101 .
1*
1+
01
1&
#1240
0&
#1250
0*
b11100101 !
b11100101 /
1"
1-
0+
1&
#1260
0&
#1270
0-
0"
1&
#1280
0&
#1290
1&
#1300
0&
#1310
1&
#1320
0&
#1330
1&
#1340
0&
#1350
1&
#1360
b10010 %
b10010 )
1'
0&
b1010 2
#1370
11
1&
#1380
0&
0'
#1390
b10010 .
1*
1+
01
1&
#1400
0&
#1410
0*
b10010 !
b10010 /
1"
1-
0+
1&
#1420
0&
#1430
0-
0"
1&
#1440
0&
#1450
1&
#1460
0&
#1470
1&
#1480
0&
#1490
1&
#1500
0&
#1510
1&
#1520
b11110010 %
b11110010 )
1'
0&
b1011 2
#1530
11
1&
#1540
0&
0'
#1550
b11110010 .
1*
1+
01
1&
#1560
0&
#1570
0*
b11110010 !
b11110010 /
1"
1-
0+
1&
#1580
b11101000 %
b11101000 )
1'
0&
b1100 2
#1590
11
0-
0"
1&
#1600
0&
0'
#1610
b11101000 .
1*
1+
01
1&
#1620
0&
#1630
0*
0+
1-
1"
b11101000 !
b11101000 /
1&
#1640
0&
#1650
0"
0-
1&
#1660
0&
#1670
1&
#1680
0&
#1690
1&
#1700
b1011100 %
b1011100 )
1'
0&
b1101 2
#1710
11
1&
#1720
0&
0'
#1730
b1011100 .
1*
1+
01
1&
#1740
0&
#1750
0*
0+
1-
1"
b1011100 !
b1011100 /
1&
#1760
0&
#1770
0"
0-
1&
#1780
0&
#1790
1&
#1800
0&
#1810
1&
#1820
b101101 %
b101101 )
1'
0&
b1110 2
#1830
11
1&
#1840
0&
0'
#1850
b101101 .
1*
1+
01
1&
#1860
b1100011 .
b1100011 %
b1100011 )
1'
0&
b1111 2
#1870
0*
0+
11
1-
1"
b1100011 !
b1100011 /
1&
#1880
0&
0'
#1890
1*
0"
0-
1+
01
1&
#1900
0&
#1910
0*
0+
1-
1"
1&
#1920
0&
#1930
0"
0-
1&
#1940
0&
#1950
1&
#1960
0&
#1970
1&
#1980
0&
#1990
1&
#2000
0&
#2010
1&
#2020
0&
#2030
1&
#2040
b10000000 %
b10000000 )
1'
0&
b10000 2
#2050
11
1&
#2060
0&
0'
#2070
b10000000 .
1*
1+
01
1&
#2080
0&
#2090
0*
b10000000 !
b10000000 /
1"
1-
0+
1&
#2100
0&
#2110
0-
0"
1&
#2120
0&
#2130
1&
#2140
b10101010 %
b10101010 )
1'
0&
b10001 2
#2150
11
1&
#2160
0&
0'
#2170
b10101010 .
1*
1+
01
1&
#2180
0&
#2190
0*
0+
1-
1"
b10101010 !
b10101010 /
1&
#2200
0&
#2210
0"
0-
1&
#2220
b10010110 %
b10010110 )
1'
0&
b10010 2
#2230
11
1&
#2240
0&
0'
#2250
b10010110 .
1*
1+
01
1&
#2260
0&
#2270
0*
0+
1-
1"
b10010110 !
b10010110 /
1&
#2280
0&
#2290
0"
0-
1&
#2300
b1101 %
b1101 )
1'
0&
b10011 2
#2310
11
1&
#2320
0&
0'
#2330
b1101 .
1*
1+
01
1&
#2340
0&
#2350
0*
0+
1-
1"
b1101 !
b1101 /
1&
#2360
0&
#2370
0"
0-
1&
#2380
0&
#2390
1&
#2400
0&
#2410
1&
#2420
b1101011 %
b1101011 )
1'
0&
b10100 2
#2430
11
1&
#2440
0&
0'
#2450
b1101011 .
1*
1+
01
1&
#2460
0&
#2470
0*
0+
1-
1"
b1101011 !
b1101011 /
1&
#2480
0&
#2490
0"
0-
1&
#2500
0&
#2510
1&
#2520
0&
#2530
1&
#2540
0&
#2550
1&
#2560
0&
#2570
1&
#2580
b10 %
b10 )
1'
0&
b10101 2
#2590
11
1&
#2600
0&
0'
#2610
b10 .
1*
1+
01
1&
#2620
0&
#2630
0*
0+
1-
1"
b10 !
b10 /
1&
#2640
0&
#2650
0"
0-
1&
#2660
0&
#2670
1&
#2680
b11101 %
b11101 )
1'
0&
b10110 2
#2690
11
1&
#2700
0&
0'
#2710
b11101 .
1*
1+
01
1&
#2720
b100011 .
b100011 %
b100011 )
1'
0&
b10111 2
#2730
0*
b100011 !
b100011 /
1"
1-
0+
11
1&
#2740
0&
0'
#2750
1*
1+
01
0-
0"
1&
#2760
0&
#2770
0*
1"
1-
0+
1&
#2780
0&
#2790
0-
0"
1&
#2800
0&
#2810
1&
#2820
0&
#2830
1&
#2840
0&
#2850
1&
#2860
0&
#2870
1&
#2880
0&
#2890
1&
#2900
b11001010 %
b11001010 )
1'
0&
b11000 2
#2910
11
1&
#2920
b11110010 %
b11110010 )
b11001 2
0&
1'
#2930
b11110010 .
1*
1+
1&
#2940
0&
0'
#2950
0*
01
1-
1"
b11110010 !
b11110010 /
1&
#2960
0&
#2970
0"
0+
1&
#2980
0&
#2990
0-
1&
#3000
0&
#3010
1&
#3020
0&
#3030
1&
#3040
0&
#3050
1&
#3060
0&
#3070
1&
#3080
0&
#3090
1&
#3100
b1000001 %
b1000001 )
1'
0&
b11010 2
#3110
11
1&
#3120
0&
0'
#3130
b1000001 .
1*
1+
01
1&
#3140
0&
#3150
0*
0+
1-
1"
b1000001 !
b1000001 /
1&
#3160
0&
#3170
0"
0-
1&
#3180
0&
#3190
1&
#3200
0&
#3210
1&
#3220
0&
#3230
1&
#3240
b1111000 %
b1111000 )
1'
0&
b11011 2
#3250
11
1&
#3260
0&
0'
#3270
b1111000 .
1*
1+
01
1&
#3280
b11101011 .
b11101011 %
b11101011 )
1'
0&
b11100 2
#3290
0*
b11101011 !
b11101011 /
1"
1-
0+
11
1&
#3300
0&
0'
#3310
1*
1+
01
0-
0"
1&
#3320
0&
#3330
0*
1"
1-
0+
1&
#3340
0&
#3350
0-
0"
1&
#3360
0&
#3370
1&
#3380
b11000110 %
b11000110 )
1'
0&
b11101 2
#3390
11
1&
#3400
0&
0'
#3410
b11000110 .
1*
1+
01
1&
#3420
0&
#3430
0*
0+
1-
1"
b11000110 !
b11000110 /
1&
#3440
0&
#3450
0"
0-
1&
#3460
0&
#3470
1&
#3480
b10111100 %
b10111100 )
1'
0&
b11110 2
#3490
11
1&
#3500
0&
0'
#3510
b10111100 .
1*
1+
01
1&
#3520
0&
#3530
0*
b10111100 !
b10111100 /
1"
1-
0+
1&
#3540
b1011 %
b1011 )
1'
0&
b11111 2
#3550
11
0-
0"
1&
#3560
0&
0'
#3570
b1011 .
1*
1+
01
1&
#3580
0&
#3590
0*
0+
1-
1"
b1011 !
b1011 /
1&
#3600
0&
#3610
0"
0-
1&
#3620
0&
#3630
1&
#3640
0&
#3650
1&
#3660
b10000101 %
b10000101 )
1'
0&
b100000 2
#3670
11
1&
#3680
0&
0'
#3690
b10000101 .
1*
1+
01
1&
#3700
0&
#3710
0*
0+
1-
1"
b10000101 !
b10000101 /
1&
#3720
0&
#3730
0"
0-
1&
#3740
b111011 %
b111011 )
1'
0&
b100001 2
#3750
11
1&
#3760
0&
0'
#3770
b111011 .
1*
1+
01
1&
#3780
0&
#3790
0*
0+
1-
1"
b111011 !
b111011 /
1&
#3800
b1111110 %
b1111110 )
1'
0&
b100010 2
#3810
0"
0-
11
1&
#3820
0&
0'
#3830
b1111110 .
1*
1+
01
1&
#3840
0&
#3850
0*
b1111110 !
b1111110 /
1"
1-
0+
1&
#3860
0&
#3870
0-
0"
1&
#3880
0&
#3890
1&
#3900
0&
#3910
1&
#3920
0&
#3930
1&
#3940
0&
#3950
1&
#3960
0&
#3970
1&
#3980
0&
#3990
1&
#4000
b11110001 %
b11110001 )
1'
0&
b100011 2
#4010
11
1&
#4020
0&
0'
#4030
b11110001 .
1*
1+
01
1&
#4040
0&
#4050
0*
b11110001 !
b11110001 /
1"
1-
0+
1&
#4060
0&
#4070
0-
0"
1&
#4080
0&
#4090
1&
#4100
0&
#4110
1&
#4120
0&
#4130
1&
#4140
0&
#4150
1&
#4160
0&
#4170
1&
#4180
0&
#4190
1&
#4200
b1100010 %
b1100010 )
1'
0&
b100100 2
#4210
11
1&
#4220
0&
0'
#4230
b1100010 .
1*
1+
01
1&
#4240
0&
#4250
0*
b1100010 !
b1100010 /
1"
1-
0+
1&
#4260
0&
#4270
0-
0"
1&
#4280
0&
#4290
1&
#4300
0&
#4310
1&
#4320
0&
#4330
1&
#4340
b10011111 %
b10011111 )
1'
0&
b100101 2
#4350
11
1&
#4360
0&
0'
#4370
b10011111 .
1*
1+
01
1&
#4380
0&
#4390
0*
0+
1-
1"
b10011111 !
b10011111 /
1&
#4400
0&
#4410
0"
0-
1&
#4420
b11111000 %
b11111000 )
1'
0&
b100110 2
#4430
11
1&
#4440
0&
0'
#4450
b11111000 .
1*
1+
01
1&
#4460
0&
#4470
0*
0+
1-
1"
b11111000 !
b11111000 /
1&
#4480
0&
#4490
0"
0-
1&
#4500
0&
#4510
1&
#4520
0&
#4530
1&
#4540
b10011111 %
b10011111 )
1'
0&
b100111 2
#4550
11
1&
#4560
0&
0'
#4570
b10011111 .
1*
1+
01
1&
#4580
0&
#4590
0*
0+
1-
1"
b10011111 !
b10011111 /
1&
#4600
0&
#4610
0"
0-
1&
#4620
0&
#4630
1&
#4640
0&
#4650
1&
#4660
0&
#4670
1&
#4680
b1011011 %
b1011011 )
1'
0&
b101000 2
#4690
11
1&
#4700
0&
0'
#4710
b1011011 .
1*
1+
01
1&
#4720
0&
#4730
0*
b1011011 !
b1011011 /
1"
1-
0+
1&
#4740
0&
#4750
0-
0"
1&
#4760
0&
#4770
1&
#4780
0&
#4790
1&
#4800
b1001001 %
b1001001 )
1'
0&
b101001 2
#4810
11
1&
#4820
0&
0'
#4830
b1001001 .
1*
1+
01
1&
#4840
0&
#4850
0*
b1001001 !
b1001001 /
1"
1-
0+
1&
#4860
0&
#4870
0-
0"
1&
#4880
0&
#4890
1&
#4900
b11010111 %
b11010111 )
1'
0&
b101010 2
#4910
11
1&
#4920
0&
0'
#4930
b11010111 .
1*
1+
01
1&
#4940
0&
#4950
0*
0+
1-
1"
b11010111 !
b11010111 /
1&
#4960
0&
#4970
0"
0-
1&
#4980
0&
#4990
1&
#5000
0&
#5010
1&
#5020
0&
#5030
1&
#5040
0&
#5050
1&
#5060
b10010110 %
b10010110 )
1'
0&
b101011 2
#5070
11
1&
#5080
0&
0'
#5090
b10010110 .
1*
1+
01
1&
#5100
0&
#5110
0*
0+
1-
1"
b10010110 !
b10010110 /
1&
#5120
b11000010 %
b11000010 )
1'
0&
b101100 2
#5130
0"
0-
11
1&
#5140
0&
0'
#5150
b11000010 .
1*
1+
01
1&
#5160
0&
#5170
0*
b11000010 !
b11000010 /
1"
1-
0+
1&
#5180
b1110111 %
b1110111 )
1'
0&
b101101 2
#5190
11
0-
0"
1&
#5200
0&
0'
#5210
b1110111 .
1*
1+
01
1&
#5220
0&
#5230
0*
0+
1-
1"
b1110111 !
b1110111 /
1&
#5240
0&
#5250
0"
0-
1&
#5260
b10010 %
b10010 )
1'
0&
b101110 2
#5270
11
1&
#5280
0&
0'
#5290
b10010 .
1*
1+
01
1&
#5300
0&
#5310
0*
0+
1-
1"
b10010 !
b10010 /
1&
#5320
0&
#5330
0"
0-
1&
#5340
0&
#5350
1&
#5360
b1101101 %
b1101101 )
1'
0&
b101111 2
#5370
11
1&
#5380
0&
0'
#5390
b1101101 .
1*
1+
01
1&
#5400
b11111 .
b11111 %
b11111 )
1'
0&
b110000 2
#5410
0*
b11111 !
b11111 /
1"
1-
0+
11
1&
#5420
0&
0'
#5430
1*
1+
01
0-
0"
1&
#5440
0&
#5450
0*
1"
1-
0+
1&
#5460
0&
#5470
0-
0"
1&
#5480
0&
#5490
1&
#5500
0&
#5510
1&
#5520
0&
#5530
1&
#5540
0&
#5550
1&
#5560
b10000101 %
b10000101 )
1'
0&
b110001 2
#5570
11
1&
#5580
0&
0'
#5590
b10000101 .
1*
1+
01
1&
#5600
0&
#5610
0*
b10000101 !
b10000101 /
1"
1-
0+
1&
#5620
0&
#5630
0-
0"
1&
#5640
0&
#5650
1&
#5660
0&
#5670
1&
#5680
0&
#5690
1&
#5700
b1011011 %
b1011011 )
1'
0&
b110010 2
#5710
11
1&
#5720
0&
0'
#5730
b1011011 .
1*
1+
01
1&
#5740
b111111 .
b111111 %
b111111 )
1'
0&
b110011 2
#5750
0*
0+
11
1-
1"
b111111 !
b111111 /
1&
#5760
0&
0'
#5770
1*
0"
0-
1+
01
1&
#5780
0&
#5790
0*
0+
1-
1"
1&
#5800
0&
#5810
0"
0-
1&
#5820
0&
#5830
1&
#5840
0&
#5850
1&
#5860
0&
#5870
1&
#5880
0&
#5890
1&
#5900
0&
#5910
1&
#5920
b1011000 %
b1011000 )
1'
0&
b110100 2
#5930
11
1&
#5940
b10001110 %
b10001110 )
b110101 2
0&
1'
#5950
b10001110 .
1*
1+
1&
#5960
0&
0'
#5970
0*
b10001110 !
b10001110 /
1"
1-
01
1&
#5980
0&
#5990
0+
0"
1&
#6000
0&
#6010
0-
1&
#6020
0&
#6030
1&
#6040
0&
#6050
1&
#6060
0&
#6070
1&
#6080
0&
#6090
1&
#6100
0&
#6110
1&
#6120
b11111010 %
b11111010 )
1'
0&
b110110 2
#6130
11
1&
#6140
b1110011 %
b1110011 )
b110111 2
0&
1'
#6150
b1110011 .
1*
1+
1&
#6160
0&
0'
#6170
0*
b1110011 !
b1110011 /
1"
1-
01
1&
#6180
0&
#6190
0+
0"
1&
#6200
0&
#6210
0-
1&
#6220
b101111 %
b101111 )
1'
0&
b111000 2
#6230
11
1&
#6240
0&
0'
#6250
b101111 .
1*
1+
01
1&
#6260
0&
#6270
0*
0+
1-
1"
b101111 !
b101111 /
1&
#6280
0&
#6290
0"
0-
1&
#6300
0&
#6310
1&
#6320
0&
#6330
1&
#6340
0&
#6350
1&
#6360
0&
#6370
1&
#6380
0&
#6390
1&
#6400
0&
#6410
1&
#6420
b1011111 %
b1011111 )
1'
0&
b111001 2
#6430
11
1&
#6440
0&
0'
#6450
b1011111 .
1*
1+
01
1&
#6460
0&
#6470
0*
0+
1-
1"
b1011111 !
b1011111 /
1&
#6480
0&
#6490
0"
0-
1&
#6500
0&
#6510
1&
#6520
b11110111 %
b11110111 )
1'
0&
b111010 2
#6530
11
1&
#6540
0&
0'
#6550
b11110111 .
1*
1+
01
1&
#6560
0&
#6570
0*
b11110111 !
b11110111 /
1"
1-
0+
1&
#6580
0&
#6590
0-
0"
1&
#6600
b11100110 %
b11100110 )
1'
0&
b111011 2
#6610
11
1&
#6620
0&
0'
#6630
b11100110 .
1*
1+
01
1&
#6640
0&
#6650
0*
b11100110 !
b11100110 /
1"
1-
0+
1&
#6660
b101001 %
b101001 )
1'
0&
b111100 2
#6670
11
0-
0"
1&
#6680
0&
0'
#6690
b101001 .
1*
1+
01
1&
#6700
b11011010 .
b11011010 %
b11011010 )
1'
0&
b111101 2
#6710
0*
0+
11
1-
1"
b11011010 !
b11011010 /
1&
#6720
0&
0'
#6730
1*
0"
0-
1+
01
1&
#6740
0&
#6750
0*
0+
1-
1"
1&
#6760
0&
#6770
0"
0-
1&
#6780
0&
#6790
1&
#6800
0&
#6810
1&
#6820
0&
#6830
1&
#6840
0&
#6850
1&
#6860
b10110101 %
b10110101 )
1'
0&
b111110 2
#6870
11
1&
#6880
0&
0'
#6890
b10110101 .
1*
1+
01
1&
#6900
0&
#6910
0*
0+
1-
1"
b10110101 !
b10110101 /
1&
#6920
0&
#6930
0"
0-
1&
#6940
0&
#6950
1&
#6960
0&
#6970
1&
#6980
0&
#6990
1&
#7000
0&
#7010
1&
#7020
b1111001 %
b1111001 )
1'
0&
b111111 2
#7030
11
1&
#7040
0&
0'
#7050
b1111001 .
1*
1+
01
1&
#7060
0&
#7070
0*
0+
1-
1"
b1111001 !
b1111001 /
1&
#7080
0&
#7090
0"
0-
1&
#7100
0&
#7110
1&
#7120
b11010000 %
b11010000 )
1'
0&
b1000000 2
#7130
11
1&
#7140
0&
0'
#7150
b11010000 .
1*
1+
01
1&
#7160
0&
#7170
0*
b11010000 !
b11010000 /
1"
1-
0+
1&
#7180
0&
#7190
0-
0"
1&
#7200
0&
#7210
1&
#7220
0&
#7230
1&
#7240
0&
#7250
1&
#7260
b10101011 %
b10101011 )
1'
0&
b1000001 2
#7270
11
1&
#7280
0&
0'
#7290
b10101011 .
1*
1+
01
1&
#7300
0&
#7310
0*
0+
1-
1"
b10101011 !
b10101011 /
1&
#7320
b11011100 %
b11011100 )
1'
0&
b1000010 2
#7330
0"
0-
11
1&
#7340
0&
0'
#7350
b11011100 .
1*
1+
01
1&
#7360
0&
#7370
0*
b11011100 !
b11011100 /
1"
1-
0+
1&
#7380
0&
#7390
0-
0"
1&
#7400
0&
#7410
1&
#7420
0&
#7430
1&
#7440
0&
#7450
1&
#7460
0&
#7470
1&
#7480
0&
#7490
1&
#7500
b11111101 %
b11111101 )
1'
0&
b1000011 2
#7510
11
1&
#7520
0&
0'
#7530
b11111101 .
1*
1+
01
1&
#7540
0&
#7550
0*
0+
1-
1"
b11111101 !
b11111101 /
1&
#7560
0&
#7570
0"
0-
1&
#7580
0&
#7590
1&
#7600
0&
#7610
1&
#7620
b1010110 %
b1010110 )
1'
0&
b1000100 2
#7630
11
1&
#7640
0&
0'
#7650
b1010110 .
1*
1+
01
1&
#7660
0&
#7670
0*
0+
1-
1"
b1010110 !
b1010110 /
1&
#7680
0&
#7690
0"
0-
1&
#7700
0&
#7710
1&
#7720
b1100111 %
b1100111 )
1'
0&
b1000101 2
#7730
11
1&
#7740
0&
0'
#7750
b1100111 .
1*
1+
01
1&
#7760
0&
#7770
0*
b1100111 !
b1100111 /
1"
1-
0+
1&
#7780
0&
#7790
0-
0"
1&
#7800
0&
#7810
1&
#7820
0&
#7830
1&
#7840
0&
#7850
1&
#7860
b10110110 %
b10110110 )
1'
0&
b1000110 2
#7870
11
1&
#7880
0&
0'
#7890
b10110110 .
1*
1+
01
1&
#7900
0&
#7910
0*
0+
1-
1"
b10110110 !
b10110110 /
1&
#7920
0&
#7930
0"
0-
1&
#7940
0&
#7950
1&
#7960
0&
#7970
1&
#7980
0&
#7990
1&
#8000
b1111001 %
b1111001 )
1'
0&
b1000111 2
#8010
11
1&
#8020
b10010100 %
b10010100 )
b1001000 2
0&
1'
#8030
b10010100 .
1*
1+
1&
#8040
0&
0'
#8050
0*
b10010100 !
b10010100 /
1"
1-
01
1&
#8060
0&
#8070
0+
0"
1&
#8080
0&
#8090
0-
1&
#8100
0&
#8110
1&
#8120
0&
#8130
1&
#8140
0&
#8150
1&
#8160
0&
#8170
1&
#8180
0&
#8190
1&
#8200
0&
#8210
1&
#8220
b100 %
b100 )
1'
0&
b1001001 2
#8230
11
1&
#8240
0&
0'
#8250
b100 .
1*
1+
01
1&
#8260
0&
#8270
0*
0+
1-
1"
b100 !
b100 /
1&
#8280
0&
#8290
0"
0-
1&
#8300
b11011011 %
b11011011 )
1'
0&
b1001010 2
#8310
11
1&
#8320
0&
0'
#8330
b11011011 .
1*
1+
01
1&
#8340
0&
#8350
0*
0+
1-
1"
b11011011 !
b11011011 /
1&
#8360
0&
#8370
0"
0-
1&
#8380
0&
#8390
1&
#8400
0&
#8410
1&
#8420
0&
#8430
1&
#8440
0&
#8450
1&
#8460
0&
#8470
1&
#8480
0&
#8490
1&
#8500
b11011001 %
b11011001 )
1'
0&
b1001011 2
#8510
11
1&
#8520
0&
0'
#8530
b11011001 .
1*
1+
01
1&
#8540
0&
#8550
0*
0+
1-
1"
b11011001 !
b11011001 /
1&
#8560
0&
#8570
0"
0-
1&
#8580
0&
#8590
1&
#8600
0&
#8610
1&
#8620
b1110110 %
b1110110 )
1'
0&
b1001100 2
#8630
11
1&
#8640
0&
0'
#8650
b1110110 .
1*
1+
01
1&
#8660
0&
#8670
0*
0+
1-
1"
b1110110 !
b1110110 /
1&
#8680
0&
#8690
0"
0-
1&
#8700
0&
#8710
1&
#8720
0&
#8730
1&
#8740
0&
#8750
1&
#8760
0&
#8770
1&
#8780
0&
#8790
1&
#8800
b10110110 %
b10110110 )
1'
0&
b1001101 2
#8810
11
1&
#8820
0&
0'
#8830
b10110110 .
1*
1+
01
1&
#8840
b1000110 .
b1000110 %
b1000110 )
1'
0&
b1001110 2
#8850
0*
b1000110 !
b1000110 /
1"
1-
0+
11
1&
#8860
b11110111 %
b11110111 )
b1001111 2
0&
1'
#8870
b11110111 .
1*
1+
0-
0"
1&
#8880
0&
0'
#8890
0*
b11110111 !
b11110111 /
1"
1-
01
1&
#8900
0&
#8910
0+
0"
1&
#8920
0&
#8930
0-
1&
#8940
0&
#8950
1&
#8960
0&
#8970
1&
#8980
0&
#8990
1&
#9000
0&
#9010
1&
#9020
0&
#9030
1&
#9040
0&
#9050
1&
#9060
b10110100 %
b10110100 )
1'
0&
b1010000 2
#9070
11
1&
#9080
0&
0'
#9090
b10110100 .
1*
1+
01
1&
#9100
0&
#9110
0*
0+
1-
1"
b10110100 !
b10110100 /
1&
#9120
0&
#9130
0"
0-
1&
#9140
0&
#9150
1&
#9160
b101000 %
b101000 )
1'
0&
b1010001 2
#9170
11
1&
#9180
0&
0'
#9190
b101000 .
1*
1+
01
1&
#9200
0&
#9210
0*
b101000 !
b101000 /
1"
1-
0+
1&
#9220
0&
#9230
0-
0"
1&
#9240
0&
#9250
1&
#9260
0&
#9270
1&
#9280
b11000111 %
b11000111 )
1'
0&
b1010010 2
#9290
11
1&
#9300
0&
0'
#9310
b11000111 .
1*
1+
01
1&
#9320
0&
#9330
0*
b11000111 !
b11000111 /
1"
1-
0+
1&
#9340
b1000 %
b1000 )
1'
0&
b1010011 2
#9350
11
0-
0"
1&
#9360
0&
0'
#9370
b1000 .
1*
1+
01
1&
#9380
0&
#9390
0*
0+
1-
1"
b1000 !
b1000 /
1&
#9400
0&
#9410
0"
0-
1&
#9420
0&
#9430
1&
#9440
b11111101 %
b11111101 )
1'
0&
b1010100 2
#9450
11
1&
#9460
0&
0'
#9470
b11111101 .
1*
1+
01
1&
#9480
0&
#9490
0*
b11111101 !
b11111101 /
1"
1-
0+
1&
#9500
0&
#9510
0-
0"
1&
#9520
0&
#9530
1&
#9540
0&
#9550
1&
#9560
0&
#9570
1&
#9580
0&
#9590
1&
#9600
0&
#9610
1&
#9620
0&
#9630
1&
#9640
b11100 %
b11100 )
1'
0&
b1010101 2
#9650
11
1&
#9660
b11011010 %
b11011010 )
b1010110 2
0&
1'
#9670
b11011010 .
1*
1+
1&
#9680
0&
0'
#9690
0*
b11011010 !
b11011010 /
1"
1-
01
1&
#9700
0&
#9710
0+
0"
1&
#9720
0&
#9730
0-
1&
#9740
0&
#9750
1&
#9760
0&
#9770
1&
#9780
0&
#9790
1&
#9800
0&
#9810
1&
#9820
b1100110 %
b1100110 )
1'
0&
b1010111 2
#9830
11
1&
#9840
0&
0'
#9850
b1100110 .
1*
1+
01
1&
#9860
0&
#9870
0*
0+
1-
1"
b1100110 !
b1100110 /
1&
#9880
0&
#9890
0"
0-
1&
#9900
0&
#9910
1&
#9920
b1110011 %
b1110011 )
1'
0&
b1011000 2
#9930
11
1&
#9940
0&
0'
#9950
b1110011 .
1*
1+
01
1&
#9960
0&
#9970
0*
b1110011 !
b1110011 /
1"
1-
0+
1&
#9980
0&
#9990
0-
0"
1&
#10000
0&
#10010
1&
#10020
0&
#10030
1&
#10040
0&
#10050
1&
#10060
0&
#10070
1&
#10080
0&
#10090
1&
#10100
b1011110 %
b1011110 )
1'
0&
b1011001 2
#10110
11
1&
#10120
b11010101 %
b11010101 )
b1011010 2
0&
1'
#10130
b11010101 .
1*
1+
1&
#10140
0&
0'
#10150
0*
01
1-
1"
b11010101 !
b11010101 /
1&
#10160
0&
#10170
0"
0+
1&
#10180
0&
#10190
0-
1&
#10200
0&
#10210
1&
#10220
0&
#10230
1&
#10240
0&
#10250
1&
#10260
b10111001 %
b10111001 )
1'
0&
b1011011 2
#10270
11
1&
#10280
0&
0'
#10290
b10111001 .
1*
1+
01
1&
#10300
0&
#10310
0*
0+
1-
1"
b10111001 !
b10111001 /
1&
#10320
0&
#10330
0"
0-
1&
#10340
0&
#10350
1&
#10360
0&
#10370
1&
#10380
0&
#10390
1&
#10400
0&
#10410
1&
#10420
b10010110 %
b10010110 )
1'
0&
b1011100 2
#10430
11
1&
#10440
0&
0'
#10450
b10010110 .
1*
1+
01
1&
#10460
0&
#10470
0*
0+
1-
1"
b10010110 !
b10010110 /
1&
#10480
0&
#10490
0"
0-
1&
#10500
0&
#10510
1&
#10520
0&
#10530
1&
#10540
0&
#10550
1&
#10560
b100110 %
b100110 )
1'
0&
b1011101 2
#10570
11
1&
#10580
0&
0'
#10590
b100110 .
1*
1+
01
1&
#10600
0&
#10610
0*
b100110 !
b100110 /
1"
1-
0+
1&
#10620
0&
#10630
0-
0"
1&
#10640
0&
#10650
1&
#10660
b1111101 %
b1111101 )
1'
0&
b1011110 2
#10670
11
1&
#10680
0&
0'
#10690
b1111101 .
1*
1+
01
1&
#10700
0&
#10710
0*
0+
1-
1"
b1111101 !
b1111101 /
1&
#10720
0&
#10730
0"
0-
1&
#10740
0&
#10750
1&
#10760
0&
#10770
1&
#10780
0&
#10790
1&
#10800
0&
#10810
1&
#10820
0&
#10830
1&
#10840
b10000110 %
b10000110 )
1'
0&
b1011111 2
#10850
11
1&
#10860
0&
0'
#10870
b10000110 .
1*
1+
01
1&
#10880
0&
#10890
0*
b10000110 !
b10000110 /
1"
1-
0+
1&
#10900
0&
#10910
0-
0"
1&
#10920
0&
#10930
1&
#10940
0&
#10950
1&
#10960
0&
#10970
1&
#10980
b1111110 %
b1111110 )
1'
0&
b1100000 2
#10990
11
1&
