src/regfile/design.vcd
$date
	Mon Aug 21 20:44:26 2023
$end
$version
	Icarus Verilog
$end
$timescale
	100ps
$end
$scope module tb $end
$var wire 1 ! tb_vaild $end
$var wire 16 " tb_reg_3 [15:0] $end
$var wire 16 # tb_reg_2 [15:0] $end
$var wire 16 $ tb_reg_1 [15:0] $end
$var wire 16 % tb_reg_0 [15:0] $end
$var wire 16 & tb_o_data [15:0] $end
$var parameter 32 ' CLK_CYCLE $end
$var parameter 32 ( RANDOM_STIMULUS_COUNT $end
$var reg 4 ) tb_add [3:0] $end
$var reg 1 * tb_clk $end
$var reg 1 + tb_en_r $end
$var reg 1 , tb_en_w $end
$var reg 16 - tb_i_data [15:0] $end
$var reg 1 . tb_rst $end
$var integer 32 / count_fails [31:0] $end
$var integer 32 0 count_valid [31:0] $end
$scope module dut $end
$var wire 4 1 i_add [3:0] $end
$var wire 1 * i_clk $end
$var wire 16 2 i_data [15:0] $end
$var wire 1 + i_en_r $end
$var wire 1 , i_en_w $end
$var wire 1 . i_rst $end
$var wire 16 3 o_reg_0 [15:0] $end
$var wire 16 4 o_reg_1 [15:0] $end
$var wire 16 5 o_reg_2 [15:0] $end
$var wire 16 6 o_reg_3 [15:0] $end
$var wire 1 ! o_vaild $end
$var reg 16 7 o_data [15:0] $end
$scope begin $ivl_for_loop0 $end
$var integer 32 8 i [31:0] $end
$upscope $end
$upscope $end
$scope begin $ivl_for_loop1 $end
$var integer 32 9 i [31:0] $end
$upscope $end
$scope begin $ivl_for_loop2 $end
$var integer 32 : i [31:0] $end
$upscope $end
$scope task read_data $end
$var reg 4 ; add [3:0] $end
$upscope $end
$scope task reset $end
$upscope $end
$scope task write_data $end
$var reg 5 < add [4:0] $end
$var reg 16 = data [15:0] $end
$upscope $end
$upscope $end
$enddefinitions $end
$comment Show the parameter values. $end
$dumpall
b10011100010000 (
b10 '
$end
#0
$dumpvars
bx =
bx <
bx ;
bx :
b10000 9
bx 8
bx 7
bx 6
bx 5
bx 4
bx 3
bx 2
bx 1
b0 0
b0 /
1.
bx -
0,
0+
0*
bx )
bx &
bx %
bx $
bx #
bx "
0!
$end
#10
1*
#15
b0 "
b0 6
b0 #
b0 5
b0 $
b0 4
b0 %
b0 3
b10000 8
0.
#20
b1 )
b1 1
b11010100100100 -
b11010100100100 2
1,
1.
b1 <
b11010100100100 =
b0 :
0*
#30
b11010100100100 $
b11010100100100 4
1*
#40
b1001 )
b1001 1
1!
1+
0,
0*
b1001 ;
#50
b0 &
b0 7
1*
#60
b1101 )
b1101 1
b101011001100011 -
b101011001100011 2
1,
0*
b1101 <
b101011001100011 =
b1 :
b1 0
#70
1*
#80
0,
0*
b1101 ;
#90
b101011001100011 &
b101011001100011 7
1*
#100
b10 )
b10 1
b1000010001100101 -
b1000010001100101 2
1,
0*
b10 <
b1000010001100101 =
b10 :
b10 0
#110
b0 &
b0 7
b1000010001100101 #
b1000010001100101 5
1*
#120
b1 )
b1 1
0,
0*
b1 ;
#130
b11010100100100 &
b11010100100100 7
1*
#140
b110 )
b110 1
b1100110100001101 -
b1100110100001101 2
1,
0*
b110 <
b1100110100001101 =
b11 :
b11 0
#150
b0 &
b0 7
1*
#160
b1101 )
b1101 1
0,
0*
b1101 ;
#170
b101011001100011 &
b101011001100011 7
1*
#180
b1100 )
b1100 1
b101011111101101 -
b101011111101101 2
1,
0*
b1100 <
b101011111101101 =
b100 :
b100 0
#190
b0 &
b0 7
1*
#200
b1001 )
b1001 1
0,
0*
b1001 ;
#210
1*
#220
b101 )
b101 1
b10010011000110 -
b10010011000110 2
1,
0*
b101 <
b10010011000110 =
b101 :
b101 0
#230
1*
#240
b1010 )
b1010 1
0,
0*
b1010 ;
#250
1*
#260
b111 )
b111 1
b1111011111100101 -
b1111011111100101 2
1,
0*
b111 <
b1111011111100101 =
b110 :
b110 0
#270
1*
#280
b10 )
b10 1
0,
0*
b10 ;
#290
b1000010001100101 &
b1000010001100101 7
1*
#300
b1101101110001111 -
b1101101110001111 2
1,
0*
b10 <
b1101101110001111 =
b111 :
b111 0
#310
b1101101110001111 #
b1101101110001111 5
1*
#320
b1110 )
b1110 1
0,
0*
b1110 ;
#330
b0 &
b0 7
1*
#340
b101 )
b101 1
b111101011101000 -
b111101011101000 2
1,
0*
b101 <
b111101011101000 =
b1000 :
b1000 0
#350
b10010011000110 &
b10010011000110 7
1*
#360
b1100 )
b1100 1
0,
0*
b1100 ;
#370
b101011111101101 &
b101011111101101 7
1*
#380
b1101 )
b1101 1
b10100010111101 -
b10100010111101 2
1,
0*
b1101 <
b10100010111101 =
b1001 :
b1001 0
#390
b101011001100011 &
b101011001100011 7
1*
#400
b101 )
b101 1
0,
0*
b101 ;
#410
b111101011101000 &
b111101011101000 7
1*
#420
b1010 )
b1010 1
b110001001100011 -
b110001001100011 2
1,
0*
b1010 <
b110001001100011 =
b1010 :
b1010 0
#430
b0 &
b0 7
1*
#440
b0 )
b0 1
0,
0*
b0 ;
#450
1*
#460
b1010 )
b1010 1
b10000100100000 -
b10000100100000 2
1,
0*
b10000100100000 =
b1011 :
b1011 0
#470
b110001001100011 &
b110001001100011 7
1*
#480
b1101 )
b1101 1
0,
0*
b1101 ;
#490
b10100010111101 &
b10100010111101 7
1*
#500
b11 )
b11 1
b11111010010110 -
b11111010010110 2
1,
0*
b11 <
b11111010010110 =
b1100 :
b1100 0
#510
b0 &
b0 7
b11111010010110 "
b11111010010110 6
1*
#520
b1101 )
b1101 1
0,
0*
#530
b10100010111101 &
b10100010111101 7
1*
#540
b1011 )
b1011 1
b1101011001010011 -
b1101011001010011 2
1,
0*
b1011 <
b1101011001010011 =
b1101 :
b1101 0
#550
b0 &
b0 7
1*
#560
b101 )
b101 1
0,
0*
b101 ;
#570
b111101011101000 &
b111101011101000 7
1*
#580
b1110 )
b1110 1
b100101000000010 -
b100101000000010 2
1,
0*
b1110 <
b100101000000010 =
b1110 :
b1110 0
#590
b0 &
b0 7
1*
#600
b1101 )
b1101 1
0,
0*
b1101 ;
#610
b10100010111101 &
b10100010111101 7
1*
#620
b11 )
b11 1
b111001011001111 -
b111001011001111 2
1,
0*
b11 <
b111001011001111 =
b1111 :
b1111 0
#630
b11111010010110 &
b11111010010110 7
b111001011001111 "
b111001011001111 6
1*
#640
b1010 )
b1010 1
0,
0*
b1010 ;
#650
b10000100100000 &
b10000100100000 7
1*
#660
b1100 )
b1100 1
b101011001010 -
b101011001010 2
1,
0*
b1100 <
b101011001010 =
b10000 :
b10000 0
#670
b101011111101101 &
b101011111101101 7
1*
#680
b10 )
b10 1
0,
0*
b10 ;
#690
b1101101110001111 &
b1101101110001111 7
1*
#700
b1 )
b1 1
b110000110001010 -
b110000110001010 2
1,
0*
b1 <
b110000110001010 =
b10001 :
b10001 0
#710
b11010100100100 &
b11010100100100 7
b110000110001010 $
b110000110001010 4
1*
#720
b1000 )
b1000 1
0,
0*
b1000 ;
#730
b0 &
b0 7
1*
#740
b1001 )
b1001 1
b1111001101111000 -
b1111001101111000 2
1,
0*
b1001 <
b1111001101111000 =
b10010 :
b10010 0
#750
1*
#760
b1011 )
b1011 1
0,
0*
b1011 ;
#770
b1101011001010011 &
b1101011001010011 7
1*
#780
b110 )
b110 1
b110010110110110 -
b110010110110110 2
1,
0*
b110 <
b110010110110110 =
b10011 :
b10011 0
#790
b1100110100001101 &
b1100110100001101 7
1*
#800
b1110 )
b1110 1
0,
0*
b1110 ;
#810
b100101000000010 &
b100101000000010 7
1*
#820
b1010 )
b1010 1
b1010111100 -
b1010111100 2
1,
0*
b1010 <
b1010111100 =
b10100 :
b10100 0
#830
b10000100100000 &
b10000100100000 7
1*
#840
b1011 )
b1011 1
0,
0*
b1011 ;
#850
b1101011001010011 &
b1101011001010011 7
1*
#860
b101 )
b101 1
b1011111001110001 -
b1011111001110001 2
1,
0*
b101 <
b1011111001110001 =
b10101 :
b10101 0
#870
b111101011101000 &
b111101011101000 7
1*
#880
b1111 )
b1111 1
0,
0*
b1111 ;
#890
b0 &
b0 7
1*
#900
b1010 )
b1010 1
b110000000111011 -
b110000000111011 2
1,
0*
b1010 <
b110000000111011 =
b10110 :
b10110 0
#910
b1010111100 &
b1010111100 7
1*
#920
b1110 )
b1110 1
0,
0*
b1110 ;
#930
b100101000000010 &
b100101000000010 7
1*
#940
b1 )
b1 1
b100101100010101 -
b100101100010101 2
1,
0*
b1 <
b100101100010101 =
b10111 :
b10111 0
#950
b110000110001010 &
b110000110001010 7
b100101100010101 $
b100101100010101 4
1*
#960
b1001 )
b1001 1
0,
0*
b1001 ;
#970
b1111001101111000 &
b1111001101111000 7
1*
#980
b1100 )
b1100 1
b11101100010 -
b11101100010 2
1,
0*
b1100 <
b11101100010 =
b11000 :
b11000 0
#990
b101011001010 &
b101011001010 7
1*
#1000
b1111 )
b1111 1
0,
0*
b1111 ;
#1010
b0 &
b0 7
1*
#1020
b1000 )
b1000 1
b1010000110001111 -
b1010000110001111 2
1,
0*
b1000 <
b1010000110001111 =
b11001 :
b11001 0
#1030
1*
#1040
b111 )
b111 1
0,
0*
b111 ;
#1050
b1111011111100101 &
b1111011111100101 7
1*
#1060
b1100 )
b1100 1
b101011010011111 -
b101011010011111 2
1,
0*
b1100 <
b101011010011111 =
b11010 :
b11010 0
#1070
b11101100010 &
b11101100010 7
1*
#1080
b1011 )
b1011 1
0,
0*
b1011 ;
#1090
b1101011001010011 &
b1101011001010011 7
1*
#1100
b1001 )
b1001 1
b11011110001001 -
b11011110001001 2
1,
0*
b1001 <
b11011110001001 =
b11011 :
b11011 0
#1110
b1111001101111000 &
b1111001101111000 7
1*
#1120
b0 )
b0 1
0,
0*
b0 ;
#1130
b0 &
b0 7
1*
#1140
b1 )
b1 1
b1100000011010111 -
b1100000011010111 2
1,
0*
b1 <
b1100000011010111 =
b11100 :
b11100 0
#1150
b100101100010101 &
b100101100010101 7
b1100000011010111 $
b1100000011010111 4
1*
#1160
b110 )
b110 1
0,
0*
b110 ;
#1170
b110010110110110 &
b110010110110110 7
1*
#1180
b10 )
b10 1
b111111100001100 -
b111111100001100 2
1,
0*
b10 <
b111111100001100 =
b11101 :
b11101 0
#1190
b1101101110001111 &
b1101101110001111 7
b111111100001100 #
b111111100001100 5
1*
#1200
b1000 )
b1000 1
0,
0*
b1000 ;
#1210
b1010000110001111 &
b1010000110001111 7
1*
#1220
b1101 )
b1101 1
b101101001110111 -
b101101001110111 2
1,
0*
b1101 <
b101101001110111 =
b11110 :
b11110 0
#1230
b10100010111101 &
b10100010111101 7
1*
#1240
b10 )
b10 1
0,
0*
b10 ;
#1250
b111111100001100 &
b111111100001100 7
1*
#1260
b1101 )
b1101 1
b1111110 -
b1111110 2
1,
0*
b1111110 =
b11111 :
b11111 0
#1270
b101101001110111 &
b101101001110111 7
1*
#1280
b1001 )
b1001 1
0,
0*
b1001 ;
#1290
b11011110001001 &
b11011110001001 7
1*
#1300
b11 )
b11 1
b1000111100011111 -
b1000111100011111 2
1,
0*
b11 <
b1000111100011111 =
b100000 :
b100000 0
#1310
b111001011001111 &
b111001011001111 7
b1000111100011111 "
b1000111100011111 6
1*
#1320
b101 )
b101 1
0,
0*
b101 ;
#1330
b1011111001110001 &
b1011111001110001 7
1*
#1340
b1011 )
b1011 1
b1000100001111000 -
b1000100001111000 2
1,
0*
b1011 <
b1000100001111000 =
b100001 :
b100001 0
#1350
b1101011001010011 &
b1101011001010011 7
1*
#1360
b1001 )
b1001 1
0,
0*
b1001 ;
#1370
b11011110001001 &
b11011110001001 7
1*
#1380
b1010 )
b1010 1
b1010111000111111 -
b1010111000111111 2
1,
0*
b1010 <
b1010111000111111 =
b100010 :
b100010 0
#1390
b110000000111011 &
b110000000111011 7
1*
#1400
b1000 )
b1000 1
0,
0*
b1000 ;
#1410
b1010000110001111 &
b1010000110001111 7
1*
#1420
b1110 )
b1110 1
b11100010000110 -
b11100010000110 2
1,
0*
b1110 <
b11100010000110 =
b100011 :
b100011 0
#1430
b100101000000010 &
b100101000000010 7
1*
#1440
b1100 )
b1100 1
0,
0*
b1100 ;
#1450
b101011010011111 &
b101011010011111 7
1*
#1460
b110 )
b110 1
b1001100111111010 -
b1001100111111010 2
1,
0*
b110 <
b1001100111111010 =
b100100 :
b100100 0
#1470
b110010110110110 &
b110010110110110 7
1*
#1480
b11 )
b11 1
0,
0*
b11 ;
#1490
b1000111100011111 &
b1000111100011111 7
1*
#1500
b1111 )
b1111 1
b1011010010100011 -
b1011010010100011 2
1,
0*
b1111 <
b1011010010100011 =
b100101 :
b100101 0
#1510
b0 &
b0 7
1*
#1520
b11 )
b11 1
0,
0*
#1530
b1000111100011111 &
b1000111100011111 7
1*
#1540
b100 )
b100 1
b101011001011111 -
b101011001011111 2
1,
0*
b100 <
b101011001011111 =
b100110 :
b100110 0
#1550
b0 &
b0 7
1*
#1560
b111 )
b111 1
0,
0*
b111 ;
#1570
b1111011111100101 &
b1111011111100101 7
1*
#1580
b110 )
b110 1
b11011011001011 -
b11011011001011 2
1,
0*
b110 <
b11011011001011 =
b100111 :
b100111 0
#1590
b1001100111111010 &
b1001100111111010 7
1*
#1600
b1010 )
b1010 1
0,
0*
b1010 ;
#1610
b1010111000111111 &
b1010111000111111 7
1*
#1620
b1101 )
b1101 1
b1100000100101001 -
b1100000100101001 2
1,
0*
b1101 <
b1100000100101001 =
b101000 :
b101000 0
#1630
b1111110 &
b1111110 7
1*
#1640
b1010 )
b1010 1
0,
0*
#1650
b1010111000111111 &
b1010111000111111 7
1*
#1660
b101 )
b101 1
b1011011001100101 -
b1011011001100101 2
1,
0*
b101 <
b1011011001100101 =
b101001 :
b101001 0
#1670
b1011111001110001 &
b1011111001110001 7
1*
#1680
b1111 )
b1111 1
0,
0*
b1111 ;
#1690
b1011010010100011 &
b1011010010100011 7
1*
#1700
b100 )
b100 1
b1100101111001 -
b1100101111001 2
1,
0*
b100 <
b1100101111001 =
b101010 :
b101010 0
#1710
b101011001011111 &
b101011001011111 7
1*
#1720
b0 )
b0 1
0,
0*
b0 ;
#1730
b0 &
b0 7
1*
#1740
b1011 )
b1011 1
b101100101010 -
b101100101010 2
1,
0*
b1011 <
b101100101010 =
b101011 :
b101011 0
#1750
b1000100001111000 &
b1000100001111000 7
1*
#1760
b1110 )
b1110 1
0,
0*
b1110 ;
#1770
b11100010000110 &
b11100010000110 7
1*
#1780
b1010 )
b1010 1
b1010110111011100 -
b1010110111011100 2
1,
0*
b1010 <
b1010110111011100 =
b101100 :
b101100 0
#1790
b1010111000111111 &
b1010111000111111 7
1*
#1800
b1101 )
b1101 1
0,
0*
b1101 ;
#1810
b1100000100101001 &
b1100000100101001 7
1*
#1820
b110 )
b110 1
b1011000011 -
b1011000011 2
1,
0*
b110 <
b1011000011 =
b101101 :
b101101 0
#1830
b11011011001011 &
b11011011001011 7
1*
#1840
b1110 )
b1110 1
0,
0*
b1110 ;
#1850
b11100010000110 &
b11100010000110 7
1*
#1860
b1010 )
b1010 1
b111011001100111 -
b111011001100111 2
1,
0*
b1010 <
b111011001100111 =
b101110 :
b101110 0
#1870
b1010110111011100 &
b1010110111011100 7
1*
#1880
b110 )
b110 1
0,
0*
b110 ;
#1890
b1011000011 &
b1011000011 7
1*
#1900
b1001 )
b1001 1
b1000101000111000 -
b1000101000111000 2
1,
0*
b1001 <
b1000101000111000 =
b101111 :
b101111 0
#1910
b11011110001001 &
b11011110001001 7
1*
#1920
b1000 )
b1000 1
0,
0*
b1000 ;
#1930
b1010000110001111 &
b1010000110001111 7
1*
#1940
b11 )
b11 1
b1011111110010100 -
b1011111110010100 2
1,
0*
b11 <
b1011111110010100 =
b110000 :
b110000 0
#1950
b1000111100011111 &
b1000111100011111 7
b1011111110010100 "
b1011111110010100 6
1*
#1960
b100 )
b100 1
0,
0*
b100 ;
#1970
b1100101111001 &
b1100101111001 7
1*
#1980
b1011 )
b1011 1
b1100101001011001 -
b1100101001011001 2
1,
0*
b1011 <
b1100101001011001 =
b110001 :
b110001 0
#1990
b101100101010 &
b101100101010 7
1*
#2000
b1101 )
b1101 1
0,
0*
b1101 ;
#2010
b1100000100101001 &
b1100000100101001 7
1*
#2020
b1011011111011001 -
b1011011111011001 2
1,
0*
b1101 <
b1011011111011001 =
b110010 :
b110010 0
#2030
1*
#2040
b110 )
b110 1
0,
0*
b110 ;
#2050
b1011000011 &
b1011000011 7
1*
#2060
b100100111001010 -
b100100111001010 2
1,
0*
b110 <
b100100111001010 =
b110011 :
b110011 0
#2070
1*
#2080
b101 )
b101 1
0,
0*
b101 ;
#2090
b1011011001100101 &
b1011011001100101 7
1*
#2100
b100 )
b100 1
b1101001000110 -
b1101001000110 2
1,
0*
b100 <
b1101001000110 =
b110100 :
b110100 0
#2110
b1100101111001 &
b1100101111001 7
1*
#2120
b111 )
b111 1
0,
0*
b111 ;
#2130
b1111011111100101 &
b1111011111100101 7
1*
#2140
b100 )
b100 1
b11101101001 -
b11101101001 2
1,
0*
b11101101001 =
b110101 :
b110101 0
#2150
b1101001000110 &
b1101001000110 7
1*
#2160
b1000 )
b1000 1
0,
0*
b1000 ;
#2170
b1010000110001111 &
b1010000110001111 7
1*
#2180
b1101 )
b1101 1
b1101100100101000 -
b1101100100101000 2
1,
0*
b1101 <
b1101100100101000 =
b110110 :
b110110 0
#2190
b1011011111011001 &
b1011011111011001 7
1*
#2200
b111 )
b111 1
0,
0*
b111 ;
#2210
b1111011111100101 &
b1111011111100101 7
1*
#2220
b1000 )
b1000 1
b1001110000101110 -
b1001110000101110 2
1,
0*
b1000 <
b1001110000101110 =
b110111 :
b110111 0
#2230
b1010000110001111 &
b1010000110001111 7
1*
#2240
b1100 )
b1100 1
0,
0*
b1100 ;
#2250
b101011010011111 &
b101011010011111 7
1*
#2260
b1001 )
b1001 1
b1010011011111101 -
b1010011011111101 2
1,
0*
b1001 <
b1010011011111101 =
b111000 :
b111000 0
#2270
b1000101000111000 &
b1000101000111000 7
1*
#2280
b1100 )
b1100 1
0,
0*
#2290
b101011010011111 &
b101011010011111 7
1*
#2300
b1010 )
b1010 1
b110011110000110 -
b110011110000110 2
1,
0*
b1010 <
b110011110000110 =
b111001 :
b111001 0
#2310
b111011001100111 &
b111011001100111 7
1*
#2320
b1101 )
b1101 1
0,
0*
b1101 ;
#2330
b1101100100101000 &
b1101100100101000 7
1*
#2340
b0 )
b0 1
b1010011101100110 -
b1010011101100110 2
1,
0*
b0 <
b1010011101100110 =
b111010 :
b111010 0
#2350
b0 &
b0 7
b1010011101100110 %
b1010011101100110 3
1*
#2360
b11 )
b11 1
0,
0*
b11 ;
#2370
b1011111110010100 &
b1011111110010100 7
1*
#2380
b1110 )
b1110 1
b1001100110111010 -
b1001100110111010 2
1,
0*
b1110 <
b1001100110111010 =
b111011 :
b111011 0
#2390
b11100010000110 &
b11100010000110 7
1*
#2400
b1010 )
b1010 1
0,
0*
b1010 ;
#2410
b110011110000110 &
b110011110000110 7
1*
#2420
b10111010101 -
b10111010101 2
1,
0*
b1010 <
b10111010101 =
b111100 :
b111100 0
#2430
1*
#2440
b1001 )
b1001 1
0,
0*
b1001 ;
#2450
b1010011011111101 &
b1010011011111101 7
1*
#2460
b110 )
b110 1
b110000100110111 -
b110000100110111 2
1,
0*
b110 <
b110000100110111 =
b111101 :
b111101 0
#2470
b100100111001010 &
b100100111001010 7
1*
#2480
b0 )
b0 1
0,
0*
b0 ;
#2490
b1010011101100110 &
b1010011101100110 7
1*
#2500
b110 )
b110 1
b1001111100100110 -
b1001111100100110 2
1,
0*
b1001111100100110 =
b111110 :
b111110 0
#2510
b110000100110111 &
b110000100110111 7
1*
#2520
b1101 )
b1101 1
0,
0*
b1101 ;
#2530
b1101100100101000 &
b1101100100101000 7
1*
#2540
b110 )
b110 1
b111111011100 -
b111111011100 2
1,
0*
b111111011100 =
b111111 :
b111111 0
#2550
b1001111100100110 &
b1001111100100110 7
1*
#2560
b1000 )
b1000 1
0,
0*
b1000 ;
#2570
b1001110000101110 &
b1001110000101110 7
1*
#2580
b1011 )
b1011 1
b1001101101111110 -
b1001101101111110 2
1,
0*
b1011 <
b1001101101111110 =
b1000000 :
b1000000 0
#2590
b1100101001011001 &
b1100101001011001 7
1*
#2600
b1111 )
b1111 1
0,
0*
b1111 ;
#2610
b1011010010100011 &
b1011010010100011 7
1*
#2620
b1010 )
b1010 1
b10101101111001 -
b10101101111001 2
1,
0*
b1010 <
b10101101111001 =
b1000001 :
b1000001 0
#2630
b10111010101 &
b10111010101 7
1*
#2640
b1 )
b1 1
0,
0*
b1 ;
#2650
b1100000011010111 &
b1100000011010111 7
1*
#2660
b100100010111 -
b100100010111 2
1,
0*
b1 <
b100100010111 =
b1000010 :
b1000010 0
#2670
b100100010111 $
b100100010111 4
1*
#2680
b110 )
b110 1
0,
0*
b110 ;
#2690
b111111011100 &
b111111011100 7
1*
#2700
b101 )
b101 1
b1001011001010000 -
b1001011001010000 2
1,
0*
b101 <
b1001011001010000 =
b1000011 :
b1000011 0
#2710
b1011011001100101 &
b1011011001100101 7
1*
#2720
0,
0*
b101 ;
#2730
b1001011001010000 &
b1001011001010000 7
1*
#2740
b1 )
b1 1
b1000101000101001 -
b1000101000101001 2
1,
0*
b1 <
b1000101000101001 =
b1000100 :
b1000100 0
#2750
b100100010111 &
b100100010111 7
b1000101000101001 $
b1000101000101001 4
1*
#2760
b101 )
b101 1
0,
0*
#2770
b1001011001010000 &
b1001011001010000 7
1*
#2780
b1011 )
b1011 1
b1011010010011000 -
b1011010010011000 2
1,
0*
b1011 <
b1011010010011000 =
b1000101 :
b1000101 0
#2790
b1001101101111110 &
b1001101101111110 7
1*
#2800
b11 )
b11 1
0,
0*
b11 ;
#2810
b1011111110010100 &
b1011111110010100 7
1*
#2820
b1010 )
b1010 1
b1110011011101100 -
b1110011011101100 2
1,
0*
b1010 <
b1110011011101100 =
b1000110 :
b1000110 0
#2830
b10101101111001 &
b10101101111001 7
1*
#2840
b1110 )
b1110 1
0,
0*
b1110 ;
#2850
b1001100110111010 &
b1001100110111010 7
1*
#2860
b1001 )
b1001 1
b1000000010101000 -
b1000000010101000 2
1,
0*
b1001 <
b1000000010101000 =
b1000111 :
b1000111 0
#2870
b1010011011111101 &
b1010011011111101 7
1*
#2880
b1 )
b1 1
0,
0*
b1 ;
#2890
b1000101000101001 &
b1000101000101001 7
1*
#2900
b110 )
b110 1
b1011100100001110 -
b1011100100001110 2
1,
0*
b110 <
b1011100100001110 =
b1001000 :
b1001000 0
#2910
b111111011100 &
b111111011100 7
1*
#2920
b1111 )
b1111 1
0,
0*
b1111 ;
#2930
b1011010010100011 &
b1011010010100011 7
1*
#2940
b1010 )
b1010 1
b1011010100101010 -
b1011010100101010 2
1,
0*
b1010 <
b1011010100101010 =
b1001001 :
b1001001 0
#2950
b1110011011101100 &
b1110011011101100 7
1*
#2960
b1101 )
b1101 1
0,
0*
b1101 ;
#2970
b1101100100101000 &
b1101100100101000 7
1*
#2980
b1000 )
b1000 1
b1111111110011110 -
b1111111110011110 2
1,
0*
b1000 <
b1111111110011110 =
b1001010 :
b1001010 0
#2990
b1001110000101110 &
b1001110000101110 7
1*
#3000
b1001 )
b1001 1
0,
0*
b1001 ;
#3010
b1000000010101000 &
b1000000010101000 7
1*
#3020
b1010 )
b1010 1
b1110001111001000 -
b1110001111001000 2
1,
0*
b1010 <
b1110001111001000 =
b1001011 :
b1001011 0
#3030
b1011010100101010 &
b1011010100101010 7
1*
#3040
b11 )
b11 1
0,
0*
b11 ;
#3050
b1011111110010100 &
b1011111110010100 7
1*
#3060
b111 )
b111 1
b1100100101101011 -
b1100100101101011 2
1,
0*
b111 <
b1100100101101011 =
b1001100 :
b1001100 0
#3070
b1111011111100101 &
b1111011111100101 7
1*
#3080
b110 )
b110 1
0,
0*
b110 ;
#3090
b1011100100001110 &
b1011100100001110 7
1*
#3100
b100 )
b100 1
b1001110110111010 -
b1001110110111010 2
1,
0*
b100 <
b1001110110111010 =
b1001101 :
b1001101 0
#3110
b11101101001 &
b11101101001 7
1*
#3120
b1001 )
b1001 1
0,
0*
b1001 ;
#3130
b1000000010101000 &
b1000000010101000 7
1*
#3140
b100 )
b100 1
b1101001110010010 -
b1101001110010010 2
1,
0*
b1101001110010010 =
b1001110 :
b1001110 0
#3150
b1001110110111010 &
b1001110110111010 7
1*
#3160
b1111 )
b1111 1
0,
0*
b1111 ;
#3170
b1011010010100011 &
b1011010010100011 7
1*
#3180
b1010 )
b1010 1
b1001000010000110 -
b1001000010000110 2
1,
0*
b1010 <
b1001000010000110 =
b1001111 :
b1001111 0
#3190
b1110001111001000 &
b1110001111001000 7
1*
#3200
b10 )
b10 1
0,
0*
b10 ;
#3210
b111111100001100 &
b111111100001100 7
1*
#3220
b1101 )
b1101 1
b10000100110010 -
b10000100110010 2
1,
0*
b1101 <
b10000100110010 =
b1010000 :
b1010000 0
#3230
b1101100100101000 &
b1101100100101000 7
1*
#3240
b100 )
b100 1
0,
0*
b100 ;
#3250
b1101001110010010 &
b1101001110010010 7
1*
#3260
b1010 )
b1010 1
b1010010011100100 -
b1010010011100100 2
1,
0*
b1010 <
b1010010011100100 =
b1010001 :
b1010001 0
#3270
b1001000010000110 &
b1001000010000110 7
1*
#3280
b1001 )
b1001 1
0,
0*
b1001 ;
#3290
b1000000010101000 &
b1000000010101000 7
1*
#3300
b1110 )
b1110 1
b1010100010100001 -
b1010100010100001 2
1,
0*
b1110 <
b1010100010100001 =
b1010010 :
b1010010 0
#3310
b1001100110111010 &
b1001100110111010 7
1*
#3320
b1011 )
b1011 1
0,
0*
b1011 ;
#3330
b1011010010011000 &
b1011010010011000 7
1*
#3340
b1111 )
b1111 1
b1111000001011 -
b1111000001011 2
1,
0*
b1111 <
b1111000001011 =
b1010011 :
b1010011 0
#3350
b1011010010100011 &
b1011010010100011 7
1*
#3360
b1001 )
b1001 1
0,
0*
b1001 ;
#3370
b1000000010101000 &
b1000000010101000 7
1*
#3380
b101 )
b101 1
b1110010100110110 -
b1110010100110110 2
1,
0*
b101 <
b1110010100110110 =
b1010100 :
b1010100 0
#3390
b1001011001010000 &
b1001011001010000 7
1*
#3400
b1111 )
b1111 1
0,
0*
b1111 ;
#3410
b1111000001011 &
b1111000001011 7
1*
#3420
b1000 )
b1000 1
b1011111101101011 -
b1011111101101011 2
1,
0*
b1000 <
b1011111101101011 =
b1010101 :
b1010101 0
#3430
b1111111110011110 &
b1111111110011110 7
1*
#3440
b1110 )
b1110 1
0,
0*
b1110 ;
#3450
b1010100010100001 &
b1010100010100001 7
1*
#3460
b10 )
b10 1
b1000000110011011 -
b1000000110011011 2
1,
0*
b10 <
b1000000110011011 =
b1010110 :
b1010110 0
#3470
b111111100001100 &
b111111100001100 7
b1000000110011011 #
b1000000110011011 5
1*
#3480
b1000 )
b1000 1
0,
0*
b1000 ;
#3490
b1011111101101011 &
b1011111101101011 7
1*
#3500
b1011 )
b1011 1
b1110000000101101 -
b1110000000101101 2
1,
0*
b1011 <
b1110000000101101 =
b1010111 :
b1010111 0
#3510
b1011010010011000 &
b1011010010011000 7
1*
#3520
b10 )
b10 1
0,
0*
b10 ;
#3530
b1000000110011011 &
b1000000110011011 7
1*
#3540
b1101 )
b1101 1
b1111011000011110 -
b1111011000011110 2
1,
0*
b1101 <
b1111011000011110 =
b1011000 :
b1011000 0
#3550
b10000100110010 &
b10000100110010 7
1*
#3560
b1100 )
b1100 1
0,
0*
b1100 ;
#3570
b101011010011111 &
b101011010011111 7
1*
#3580
b1 )
b1 1
b1001110100011000 -
b1001110100011000 2
1,
0*
b1 <
b1001110100011000 =
b1011001 :
b1011001 0
#3590
b1000101000101001 &
b1000101000101001 7
b1001110100011000 $
b1001110100011000 4
1*
#3600
b110 )
b110 1
0,
0*
b110 ;
#3610
b1011100100001110 &
b1011100100001110 7
1*
#3620
b1011 )
b1011 1
b10010001000001 -
b10010001000001 2
1,
0*
b1011 <
b10010001000001 =
b1011010 :
b1011010 0
#3630
b1110000000101101 &
b1110000000101101 7
1*
#3640
b1000 )
b1000 1
0,
0*
b1000 ;
#3650
b1011111101101011 &
b1011111101101011 7
1*
#3660
b110 )
b110 1
b1110100101010011 -
b1110100101010011 2
1,
0*
b110 <
b1110100101010011 =
b1011011 :
b1011011 0
#3670
b1011100100001110 &
b1011100100001110 7
1*
#3680
b1011 )
b1011 1
0,
0*
b1011 ;
#3690
b10010001000001 &
b10010001000001 7
1*
#3700
b100 )
b100 1
b1111101011100010 -
b1111101011100010 2
1,
0*
b100 <
b1111101011100010 =
b1011100 :
b1011100 0
#3710
b1101001110010010 &
b1101001110010010 7
1*
#3720
b11 )
b11 1
0,
0*
b11 ;
#3730
b1011111110010100 &
b1011111110010100 7
1*
#3740
b10 )
b10 1
b1011010011011000 -
b1011010011011000 2
1,
0*
b10 <
b1011010011011000 =
b1011101 :
b1011101 0
#3750
b1000000110011011 &
b1000000110011011 7
b1011010011011000 #
b1011010011011000 5
1*
#3760
b1000 )
b1000 1
0,
0*
b1000 ;
#3770
b1011111101101011 &
b1011111101101011 7
1*
#3780
b101 )
b101 1
b1001000111001 -
b1001000111001 2
1,
0*
b101 <
b1001000111001 =
b1011110 :
b1011110 0
#3790
b1110010100110110 &
b1110010100110110 7
1*
#3800
b1 )
b1 1
0,
0*
b1 ;
#3810
b1001110100011000 &
b1001110100011000 7
1*
#3820
b111100101011 -
b111100101011 2
1,
0*
b1 <
b111100101011 =
b1011111 :
b1011111 0
#3830
b111100101011 $
b111100101011 4
1*
#3840
b1000 )
b1000 1
0,
0*
b1000 ;
#3850
b1011111101101011 &
b1011111101101011 7
1*
#3860
b1 )
b1 1
b101010100100111 -
b101010100100111 2
1,
0*
b101010100100111 =
b1100000 :
b1100000 0
